EESchema Schematic File Version 4
LIBS:switch-cache
EELAYER 29 0
EELAYER END
$Descr A4 11693 8268
encoding utf-8
Sheet 1 1
Title ""
Date ""
Rev ""
Comp ""
Comment1 ""
Comment2 ""
Comment3 ""
Comment4 ""
$EndDescr
$Comp
L power:AC #PWR0101
U 1 1 5D91BED4
P 600 950
F 0 "#PWR0101" H 600 850 50  0001 C CNN
F 1 "AC" H 600 1225 50  0000 C CNN
F 2 "" H 600 950 50  0001 C CNN
F 3 "" H 600 950 50  0001 C CNN
	1    600  950 
	1    0    0    -1  
$EndComp
Wire Wire Line
	600  950  950  950 
$Comp
L Connector_Generic:Conn_02x20_Odd_Even J2
U 1 1 5D9210D0
P 2500 1650
F 0 "J2" H 2550 2767 50  0000 C CNN
F 1 "Conn_02x20_Odd_Even" H 2550 2676 50  0000 C CNN
F 2 "foot:PinSocket_2x20_P2.54mm_Vertical" H 2500 1650 50  0001 C CNN
F 3 "~" H 2500 1650 50  0001 C CNN
	1    2500 1650
	1    0    0    -1  
$EndComp
Wire Wire Line
	1850 1250 1900 1250
Wire Wire Line
	2100 1250 2100 600 
Wire Wire Line
	2100 600  2900 600 
Wire Wire Line
	2900 600  2900 750 
Wire Wire Line
	2900 750  2800 750 
Wire Wire Line
	1850 950  1850 550 
Wire Wire Line
	2950 550  2950 950 
Wire Wire Line
	2950 950  2800 950 
$Comp
L Relay:JQC-3FF RELAY1
U 1 1 5D92944A
P 1150 1800
F 0 "RELAY1" H 1150 2225 50  0000 C CNN
F 1 "JQC-3FF" H 1150 2134 50  0000 C CNN
F 2 "Relay_THT:JQC-3FF" H 1150 1450 50  0001 C CNN
F 3 "https://www.generationrobots.com/media/JQC-3FF-v1.pdf" H 1150 1400 50  0001 C CNN
	1    1150 1800
	-1   0    0    -1  
$EndComp
Wire Wire Line
	1850 550  2950 550 
$Comp
L Transistor_BJT:BCP56 Q1
U 1 1 5D935CE1
P 1850 2800
F 0 "Q1" H 2041 2846 50  0000 L CNN
F 1 "BCP56" H 2041 2755 50  0000 L CNN
F 2 "Package_TO_SOT_SMD:SOT-223" H 2050 2725 50  0001 L CIN
F 3 "http://cache.nxp.com/documents/data_sheet/BCP56_BCX56_BC56PA.pdf?pspll=1" H 1850 2800 50  0001 L CNN
	1    1850 2800
	0    -1   1    0   
$EndComp
Connection ~ 1900 1250
Wire Wire Line
	1900 1250 2100 1250
Wire Wire Line
	1600 1800 1700 1800
Wire Wire Line
	1700 1800 1700 2300
Wire Wire Line
	500  2300 500  950 
Wire Wire Line
	500  950  600  950 
Connection ~ 600  950 
Wire Wire Line
	2950 2900 2950 2450
Connection ~ 2950 950 
Wire Wire Line
	700  1600 650  1600
Wire Wire Line
	650  1600 650  2750
$Comp
L MS1005:MS1005 U1
U 1 1 5D948896
P 1400 1100
F 0 "U1" H 1400 1475 50  0000 C CNN
F 1 "MS1005" H 1400 1384 50  0000 C CNN
F 2 "foot:MS1005" H 1400 850 50  0001 C CNN
F 3 "http://pwrgmall.co.kr/DATAS/es_shop_product/Microsoft_Word_-_MS1005_Ver1-0.pdf" H 1400 1100 50  0001 C CNN
	1    1400 1100
	1    0    0    -1  
$EndComp
$Comp
L Device:LED D1
U 1 1 5DC03845
P 3700 1200
F 0 "D1" H 3693 1416 50  0000 C CNN
F 1 "POWER_LED" H 3693 1325 50  0000 C CNN
F 2 "LED_SMD:LED_0805_2012Metric_Pad1.15x1.40mm_HandSolder" H 3700 1200 50  0001 C CNN
F 3 "~" H 3700 1200 50  0001 C CNN
	1    3700 1200
	1    0    0    -1  
$EndComp
$Comp
L Device:LED D2
U 1 1 5DC0403C
P 3700 1550
F 0 "D2" H 3693 1766 50  0000 C CNN
F 1 "WIFI_LED" H 3693 1675 50  0000 C CNN
F 2 "LED_SMD:LED_0805_2012Metric_Pad1.15x1.40mm_HandSolder" H 3700 1550 50  0001 C CNN
F 3 "~" H 3700 1550 50  0001 C CNN
	1    3700 1550
	1    0    0    -1  
$EndComp
$Comp
L Device:LED D3
U 1 1 5DC045B1
P 3700 1900
F 0 "D3" H 3693 2116 50  0000 C CNN
F 1 "IO_LED" H 3693 2025 50  0000 C CNN
F 2 "LED_SMD:LED_0805_2012Metric_Pad1.15x1.40mm_HandSolder" H 3700 1900 50  0001 C CNN
F 3 "~" H 3700 1900 50  0001 C CNN
	1    3700 1900
	1    0    0    -1  
$EndComp
$Comp
L Device:R R2
U 1 1 5DC08FB8
P 3250 1200
F 0 "R2" V 3043 1200 50  0000 C CNN
F 1 "R" V 3134 1200 50  0000 C CNN
F 2 "Resistor_SMD:R_1206_3216Metric_Pad1.42x1.75mm_HandSolder" V 3180 1200 50  0001 C CNN
F 3 "~" H 3250 1200 50  0001 C CNN
	1    3250 1200
	0    1    1    0   
$EndComp
$Comp
L Device:R R3
U 1 1 5DC0AF8E
P 3250 1550
F 0 "R3" V 3043 1550 50  0000 C CNN
F 1 "R" V 3134 1550 50  0000 C CNN
F 2 "Resistor_SMD:R_1206_3216Metric_Pad1.42x1.75mm_HandSolder" V 3180 1550 50  0001 C CNN
F 3 "~" H 3250 1550 50  0001 C CNN
	1    3250 1550
	0    1    1    0   
$EndComp
$Comp
L Device:R R4
U 1 1 5DC0B40F
P 3250 1900
F 0 "R4" V 3043 1900 50  0000 C CNN
F 1 "R" V 3134 1900 50  0000 C CNN
F 2 "Resistor_SMD:R_1206_3216Metric_Pad1.42x1.75mm_HandSolder" V 3180 1900 50  0001 C CNN
F 3 "~" H 3250 1900 50  0001 C CNN
	1    3250 1900
	0    1    1    0   
$EndComp
Connection ~ 2900 600 
Wire Wire Line
	3400 1200 3550 1200
Wire Wire Line
	3850 1200 3850 550 
Wire Wire Line
	3850 550  2950 550 
Connection ~ 2950 550 
$Comp
L Device:R R1
U 1 1 5DC0E4B9
P 1850 2300
F 0 "R1" H 1780 2254 50  0000 R CNN
F 1 "R" H 1780 2345 50  0000 R CNN
F 2 "Resistor_SMD:R_1206_3216Metric_Pad1.42x1.75mm_HandSolder" V 1780 2300 50  0001 C CNN
F 3 "~" H 1850 2300 50  0001 C CNN
	1    1850 2300
	-1   0    0    1   
$EndComp
Wire Wire Line
	500  2300 1700 2300
Wire Wire Line
	2150 2950 3000 2950
Wire Wire Line
	3000 2950 3000 1550
Wire Wire Line
	3000 1550 3100 1550
Wire Wire Line
	3400 1550 3550 1550
Wire Wire Line
	2250 3000 3100 3000
Wire Wire Line
	3100 3000 3100 1900
Wire Wire Line
	3400 1900 3550 1900
Wire Wire Line
	3850 1550 3850 1200
Connection ~ 3850 1200
$Comp
L Connector_Generic:Conn_01x04 J3
U 1 1 5DC21546
P 3550 2450
F 0 "J3" H 3630 2442 50  0000 L CNN
F 1 "Conn_01x04" H 3630 2351 50  0000 L CNN
F 2 "Connector_PinHeader_2.54mm:PinHeader_1x04_P2.54mm_Horizontal" H 3550 2450 50  0001 C CNN
F 3 "~" H 3550 2450 50  0001 C CNN
	1    3550 2450
	1    0    0    -1  
$EndComp
Wire Wire Line
	2800 1050 3050 1050
Wire Wire Line
	3050 1050 3050 2550
Wire Wire Line
	3050 2550 3350 2550
Wire Wire Line
	2800 1150 2900 1150
Wire Wire Line
	2900 1150 2900 2650
Wire Wire Line
	2900 2650 3350 2650
Wire Wire Line
	2950 2450 3350 2450
Connection ~ 2950 2450
Wire Wire Line
	2950 2450 2950 950 
Wire Wire Line
	3900 600  3900 2050
Wire Wire Line
	3900 2050 3150 2050
Wire Wire Line
	3150 2050 3150 2350
Wire Wire Line
	3150 2350 3350 2350
Wire Wire Line
	950  1250 600  1250
Wire Wire Line
	600  1250 600  2850
Wire Wire Line
	2900 600  3900 600 
Wire Wire Line
	2300 750  2300 500 
Wire Wire Line
	2300 500  3100 500 
Wire Wire Line
	3100 500  3100 1200
Wire Wire Line
	650  2750 1150 2750
Wire Wire Line
	600  2850 1150 2850
Wire Wire Line
	3850 1900 3850 1550
Connection ~ 3850 1550
Wire Wire Line
	2050 2900 2950 2900
Wire Wire Line
	1600 2000 1600 2900
Wire Wire Line
	1600 2900 1650 2900
Wire Wire Line
	1900 1250 1900 1600
Wire Wire Line
	1600 1600 1900 1600
Wire Wire Line
	2200 1300 1950 1300
Wire Wire Line
	1950 1300 1950 1650
Wire Wire Line
	1950 1650 1850 1650
Wire Wire Line
	1850 1650 1850 2150
Wire Wire Line
	1850 2450 1850 2600
$Comp
L Switch:SW_Push SW1
U 1 1 5DC9A7E8
P 3650 3100
F 0 "SW1" H 3650 3385 50  0000 C CNN
F 1 "SW_IO" H 3650 3294 50  0000 C CNN
F 2 "foot:ITS-1105RT" H 3650 3300 50  0001 C CNN
F 3 "~" H 3650 3300 50  0001 C CNN
	1    3650 3100
	1    0    0    -1  
$EndComp
$Comp
L Device:R R5
U 1 1 5DC9C78C
P 3200 3100
F 0 "R5" V 2993 3100 50  0000 C CNN
F 1 "R" V 3084 3100 50  0000 C CNN
F 2 "Resistor_SMD:R_1206_3216Metric_Pad1.42x1.75mm_HandSolder" V 3130 3100 50  0001 C CNN
F 3 "~" H 3200 3100 50  0001 C CNN
	1    3200 3100
	0    1    1    0   
$EndComp
Wire Wire Line
	3350 3100 3450 3100
Wire Wire Line
	3050 3100 2100 3100
Wire Wire Line
	2100 3100 2100 2150
Wire Wire Line
	3850 3100 4150 3100
Wire Wire Line
	4150 3100 4150 500 
Wire Wire Line
	4150 500  3100 500 
Connection ~ 3100 500 
Wire Wire Line
	2250 2150 2300 2150
Wire Wire Line
	2250 2150 2250 3000
Wire Wire Line
	2300 1050 2150 1050
Wire Wire Line
	2150 1050 2150 2950
Wire Wire Line
	2200 950  2300 950 
Wire Wire Line
	2200 950  2200 1300
Wire Wire Line
	2100 2150 2200 2150
Wire Wire Line
	2200 2150 2200 1350
Wire Wire Line
	2200 1350 2250 1350
Wire Wire Line
	2250 1350 2250 850 
Wire Wire Line
	2250 850  2300 850 
$Comp
L power:AC #PWR?
U 1 1 5DCDA0E2
P 600 1250
F 0 "#PWR?" H 600 1150 50  0001 C CNN
F 1 "AC" H 600 1525 50  0000 C CNN
F 2 "" H 600 1250 50  0001 C CNN
F 3 "" H 600 1250 50  0001 C CNN
	1    600  1250
	1    0    0    -1  
$EndComp
Connection ~ 600  1250
$EndSCHEMATC
