EESchema Schematic File Version 4
EELAYER 30 0
EELAYER END
$Descr A4 11693 8268
encoding utf-8
Sheet 1 1
Title ""
Date ""
Rev ""
Comp ""
Comment1 ""
Comment2 ""
Comment3 ""
Comment4 ""
$EndDescr
$Comp
L power:+BATT #PWR01
U 1 1 5DC24196
P 700 700
F 0 "#PWR01" H 700 550 50  0001 C CNN
F 1 "+BATT" H 715 873 50  0000 C CNN
F 2 "" H 700 700 50  0001 C CNN
F 3 "" H 700 700 50  0001 C CNN
	1    700  700 
	1    0    0    -1  
$EndComp
$Comp
L power:-BATT #PWR02
U 1 1 5DC251F6
P 700 2350
F 0 "#PWR02" H 700 2200 50  0001 C CNN
F 1 "-BATT" H 715 2523 50  0000 C CNN
F 2 "" H 700 2350 50  0001 C CNN
F 3 "" H 700 2350 50  0001 C CNN
	1    700  2350
	1    0    0    -1  
$EndComp
$Comp
L Regulator_Switching:LM2575-5.0BU U1
U 1 1 5DC28D78
P 2600 1000
F 0 "U1" H 2600 1367 50  0000 C CNN
F 1 "LM2575D2T-5.0" H 2600 1276 50  0000 C CNN
F 2 "Package_TO_SOT_SMD:TO-263-5_TabPin3" H 2600 750 50  0001 L CIN
F 3 "http://ww1.microchip.com/downloads/en/DeviceDoc/lm2575.pdf" H 2600 1000 50  0001 C CNN
	1    2600 1000
	1    0    0    -1  
$EndComp
Wire Wire Line
	700  700  700  900 
$Comp
L Device:CP1 C1
U 1 1 5DC2EF34
P 1350 1700
F 0 "C1" H 1465 1746 50  0000 L CNN
F 1 "CP1" H 1465 1655 50  0000 L CNN
F 2 "Capacitor_SMD:CP_Elec_8x10" H 1350 1700 50  0001 C CNN
F 3 "~" H 1350 1700 50  0001 C CNN
	1    1350 1700
	1    0    0    -1  
$EndComp
Wire Wire Line
	1350 900  1350 1550
Connection ~ 1350 900 
Wire Wire Line
	1350 900  2100 900 
Wire Wire Line
	700  2350 1350 2350
Wire Wire Line
	1350 2350 1350 1850
Wire Wire Line
	2100 1100 2100 2350
Wire Wire Line
	2100 2350 1350 2350
Connection ~ 1350 2350
Wire Wire Line
	2600 1300 2600 2350
Wire Wire Line
	2600 2350 2100 2350
Connection ~ 2100 2350
$Comp
L Device:L L1
U 1 1 5DC3039B
P 3550 1100
F 0 "L1" V 3740 1100 50  0000 C CNN
F 1 "L" V 3649 1100 50  0000 C CNN
F 2 "Inductor_SMD:L_6.3x6.3_H3" H 3550 1100 50  0001 C CNN
F 3 "~" H 3550 1100 50  0001 C CNN
	1    3550 1100
	0    -1   -1   0   
$EndComp
Wire Wire Line
	3100 1100 3400 1100
Wire Wire Line
	3100 900  4000 900 
Wire Wire Line
	4000 900  4000 1100
Wire Wire Line
	4000 1100 3700 1100
$Comp
L Device:CP1 C2
U 1 1 5DC31BFB
P 4000 1700
F 0 "C2" H 4115 1746 50  0000 L CNN
F 1 "CP1" H 4115 1655 50  0000 L CNN
F 2 "Capacitor_SMD:CP_Elec_8x10" H 4000 1700 50  0001 C CNN
F 3 "~" H 4000 1700 50  0001 C CNN
	1    4000 1700
	1    0    0    -1  
$EndComp
Wire Wire Line
	4000 1100 4000 1550
Connection ~ 4000 1100
Wire Wire Line
	4000 1850 4000 2350
Wire Wire Line
	4000 2350 2600 2350
Connection ~ 2600 2350
$Comp
L Connector_Generic:Conn_02x20_Odd_Even J3
U 1 1 5DC340B1
P 7400 2000
F 0 "J3" H 7450 3117 50  0000 C CNN
F 1 "HEADER_RPI" H 7450 3026 50  0000 C CNN
F 2 "foot:PinSocket_2x20_P2.54mm_Vertical" H 7400 2000 50  0001 C CNN
F 3 "~" H 7400 2000 50  0001 C CNN
	1    7400 2000
	-1   0    0    -1  
$EndComp
$Comp
L Connector_Generic:Conn_01x02 J1
U 1 1 5DC42989
P 750 3450
F 0 "J1" H 668 3667 50  0000 C CNN
F 1 "HEADER_MOTOR" H 668 3576 50  0000 C CNN
F 2 "foot:PinHeader_2x01_P2.00mm_Horizontal" H 750 3450 50  0001 C CNN
F 3 "~" H 750 3450 50  0001 C CNN
	1    750  3450
	-1   0    0    -1  
$EndComp
$Comp
L Connector_Generic:Conn_01x04 J2
U 1 1 5DC43E81
P 4300 2800
F 0 "J2" V 4172 2980 50  0000 L CNN
F 1 "HEADER_UART" V 4263 2980 50  0000 L CNN
F 2 "foot:PinHeader_1x04_P2.54mm_Horizontal" H 4300 2800 50  0001 C CNN
F 3 "~" H 4300 2800 50  0001 C CNN
	1    4300 2800
	0    1    1    0   
$EndComp
Wire Wire Line
	4000 2350 4300 2350
Wire Wire Line
	4300 2350 4300 2600
Connection ~ 4000 2350
$Comp
L Device:Buzzer BZ1
U 1 1 5DC49BD4
P 800 4300
F 0 "BZ1" H 805 4590 50  0000 C CNN
F 1 "Buzzer" H 805 4499 50  0000 C CNN
F 2 "foot:FQ-014" V 775 4400 50  0001 C CNN
F 3 "~" V 775 4400 50  0001 C CNN
	1    800  4300
	-1   0    0    -1  
$EndComp
$Comp
L Transistor_BJT:2N2219 Q1
U 1 1 5DC4E29F
P 1600 3050
F 0 "Q1" H 1791 3004 50  0000 L CNN
F 1 "2N2222" H 1791 3095 50  0000 L CNN
F 2 "Package_TO_SOT_SMD:SOT-23" H 1800 2975 50  0001 L CIN
F 3 "" H 1600 3050 50  0001 L CNN
	1    1600 3050
	-1   0    0    1   
$EndComp
$Comp
L Transistor_BJT:2N2219 Q3
U 1 1 5DC537FC
P 2450 3050
F 0 "Q3" H 2641 3004 50  0000 L CNN
F 1 "2N2222" H 2641 3095 50  0000 L CNN
F 2 "Package_TO_SOT_SMD:SOT-23" H 2650 2975 50  0001 L CIN
F 3 "" H 2450 3050 50  0001 L CNN
	1    2450 3050
	-1   0    0    1   
$EndComp
$Comp
L Transistor_BJT:2N2219 Q2
U 1 1 5DC7100D
P 1600 3900
F 0 "Q2" H 1791 3854 50  0000 L CNN
F 1 "2N2222" H 1791 3945 50  0000 L CNN
F 2 "Package_TO_SOT_SMD:SOT-23" H 1800 3825 50  0001 L CIN
F 3 "" H 1600 3900 50  0001 L CNN
	1    1600 3900
	-1   0    0    1   
$EndComp
$Comp
L Transistor_BJT:2N2219 Q4
U 1 1 5DC7180C
P 2450 3900
F 0 "Q4" H 2641 3854 50  0000 L CNN
F 1 "2N2222" H 2641 3945 50  0000 L CNN
F 2 "Package_TO_SOT_SMD:SOT-23" H 2650 3825 50  0001 L CIN
F 3 "" H 2450 3900 50  0001 L CNN
	1    2450 3900
	-1   0    0    1   
$EndComp
$Comp
L Device:R R1
U 1 1 5DC77A04
P 2350 4600
F 0 "R1" H 2420 4646 50  0000 L CNN
F 1 "R" H 2420 4555 50  0000 L CNN
F 2 "Resistor_SMD:R_1206_3216Metric_Pad1.42x1.75mm_HandSolder" V 2280 4600 50  0001 C CNN
F 3 "~" H 2350 4600 50  0001 C CNN
	1    2350 4600
	1    0    0    -1  
$EndComp
Connection ~ 5000 1100
Wire Wire Line
	900  4200 5000 4200
Wire Wire Line
	900  4400 1500 4400
Wire Wire Line
	1500 4400 1500 4100
Wire Wire Line
	1500 4400 1500 4750
Wire Wire Line
	1500 4750 2350 4750
Connection ~ 1500 4400
Wire Wire Line
	2350 4450 2350 4100
Wire Wire Line
	1500 3700 2350 3700
Connection ~ 2350 3700
Wire Wire Line
	2350 3700 4000 3700
Wire Wire Line
	4000 2350 4000 2850
Wire Wire Line
	1500 2850 2350 2850
Connection ~ 4000 2850
Connection ~ 2350 2850
Wire Wire Line
	2350 2850 4000 2850
Wire Wire Line
	5000 1100 5000 3400
Wire Wire Line
	950  3450 2350 3450
Wire Wire Line
	2350 3450 2350 3250
Wire Wire Line
	950  3450 950  3400
Wire Wire Line
	950  3400 5000 3400
Connection ~ 950  3450
Connection ~ 5000 3400
Wire Wire Line
	5000 3400 5000 3500
Wire Wire Line
	950  3550 1500 3550
Wire Wire Line
	1500 3550 1500 3250
Wire Wire Line
	950  3550 950  3500
Wire Wire Line
	950  3500 5000 3500
Connection ~ 950  3550
Connection ~ 5000 3500
Wire Wire Line
	5000 3500 5000 4200
$Comp
L Connector_Generic:Conn_01x12 J4
U 1 1 5DCA45C0
P 10650 5800
F 0 "J4" H 10730 5792 50  0000 L CNN
F 1 "HEADER_FRONTPAD" H 10730 5701 50  0000 L CNN
F 2 "foot:PinHeader_2x06_P2.00mm_Horizontal" H 10650 5800 50  0001 C CNN
F 3 "~" H 10650 5800 50  0001 C CNN
	1    10650 5800
	1    0    0    -1  
$EndComp
Wire Wire Line
	4000 3700 4000 5300
Wire Wire Line
	4000 5300 6700 5300
Connection ~ 4000 3700
Wire Wire Line
	700  900  850  900 
Wire Wire Line
	10450 5400 10350 5400
Wire Wire Line
	10350 5400 10350 5150
Wire Wire Line
	10350 5150 11150 5150
Wire Wire Line
	11150 5150 11150 500 
Wire Wire Line
	850  500  850  900 
Connection ~ 850  900 
$Comp
L Transistor_BJT:2N2219 Q5
U 1 1 5DCF6863
P 8950 5800
F 0 "Q5" V 9185 5800 50  0000 C CNN
F 1 "2N2222" V 9276 5800 50  0000 C CNN
F 2 "Package_TO_SOT_SMD:SOT-23" H 9150 5725 50  0001 L CIN
F 3 "" H 8950 5800 50  0001 L CNN
	1    8950 5800
	0    -1   1    0   
$EndComp
Wire Wire Line
	5000 1100 5000 550 
Wire Wire Line
	5000 550  8700 550 
$Comp
L Transistor_BJT:BC807W Q6
U 1 1 5DC469FE
P 9400 3550
F 0 "Q6" V 9635 3550 50  0000 C CNN
F 1 "2N2907" V 9726 3550 50  0000 C CNN
F 2 "Package_TO_SOT_SMD:SOT-323_SC-70_Handsoldering" H 9600 3475 50  0001 L CIN
F 3 "http://www.fairchildsemi.com/ds/BC/BC807.pdf" H 9400 3550 50  0001 L CNN
	1    9400 3550
	0    1    1    0   
$EndComp
Wire Wire Line
	8700 5900 8750 5900
Wire Wire Line
	8700 550  8700 5900
Wire Wire Line
	9150 5900 9150 5600
Wire Wire Line
	9150 5600 10450 5600
$Comp
L Transistor_BJT:BC807W Q7
U 1 1 5DC6CA9E
P 9400 4200
F 0 "Q7" V 9635 4200 50  0000 C CNN
F 1 "2N2907" V 9726 4200 50  0000 C CNN
F 2 "Package_TO_SOT_SMD:SOT-323_SC-70_Handsoldering" H 9600 4125 50  0001 L CIN
F 3 "http://www.fairchildsemi.com/ds/BC/BC807.pdf" H 9400 4200 50  0001 L CNN
	1    9400 4200
	0    1    1    0   
$EndComp
$Comp
L Transistor_BJT:BC807W Q8
U 1 1 5DC6D54E
P 9400 4850
F 0 "Q8" V 9635 4850 50  0000 C CNN
F 1 "2N2907" V 9726 4850 50  0000 C CNN
F 2 "Package_TO_SOT_SMD:SOT-323_SC-70_Handsoldering" H 9600 4775 50  0001 L CIN
F 3 "http://www.fairchildsemi.com/ds/BC/BC807.pdf" H 9400 4850 50  0001 L CNN
	1    9400 4850
	0    1    1    0   
$EndComp
Wire Wire Line
	9400 3350 9900 3350
Wire Wire Line
	9900 3350 9900 5700
Wire Wire Line
	9900 5700 10450 5700
Wire Wire Line
	9400 4000 9800 4000
Wire Wire Line
	9800 4000 9800 5800
Wire Wire Line
	9800 5800 10450 5800
Wire Wire Line
	9400 4650 9700 4650
Wire Wire Line
	9700 5900 10450 5900
$Comp
L Device:R R9
U 1 1 5DC8AD8C
P 9200 2900
F 0 "R9" H 9130 2854 50  0000 R CNN
F 1 "R" H 9130 2945 50  0000 R CNN
F 2 "Resistor_SMD:R_1206_3216Metric_Pad1.42x1.75mm_HandSolder" V 9130 2900 50  0001 C CNN
F 3 "~" H 9200 2900 50  0001 C CNN
	1    9200 2900
	-1   0    0    1   
$EndComp
Wire Wire Line
	9200 3050 9200 3650
Wire Wire Line
	9750 2600 9750 3650
Wire Wire Line
	9750 3650 9600 3650
Wire Wire Line
	7600 1100 8800 1100
Wire Wire Line
	7600 1400 9050 1400
Wire Wire Line
	9050 1400 9050 5500
$Comp
L Switch:SW_SPDT SW3
U 1 1 5DCC8238
P 5400 2900
F 0 "SW3" H 5400 3185 50  0000 C CNN
F 1 "SW_SPDT" H 5400 3094 50  0000 C CNN
F 2 "foot:CM-1283R" H 5400 2900 50  0001 C CNN
F 3 "~" H 5400 2900 50  0001 C CNN
	1    5400 2900
	1    0    0    -1  
$EndComp
$Comp
L Device:R R3
U 1 1 5DD430FA
P 6000 2500
F 0 "R3" H 5930 2454 50  0000 R CNN
F 1 "R" H 5930 2545 50  0000 R CNN
F 2 "Resistor_SMD:R_1206_3216Metric_Pad1.42x1.75mm_HandSolder" V 5930 2500 50  0001 C CNN
F 3 "~" H 6000 2500 50  0001 C CNN
	1    6000 2500
	0    1    1    0   
$EndComp
$Comp
L Device:R R4
U 1 1 5DD436FF
P 6000 2800
F 0 "R4" H 5930 2754 50  0000 R CNN
F 1 "R" H 5930 2845 50  0000 R CNN
F 2 "Resistor_SMD:R_1206_3216Metric_Pad1.42x1.75mm_HandSolder" V 5930 2800 50  0001 C CNN
F 3 "~" H 6000 2800 50  0001 C CNN
	1    6000 2800
	0    1    1    0   
$EndComp
$Comp
L Device:R R5
U 1 1 5DD43C60
P 6000 3000
F 0 "R5" H 5930 2954 50  0000 R CNN
F 1 "R" H 5930 3045 50  0000 R CNN
F 2 "Resistor_SMD:R_1206_3216Metric_Pad1.42x1.75mm_HandSolder" V 5930 3000 50  0001 C CNN
F 3 "~" H 6000 3000 50  0001 C CNN
	1    6000 3000
	0    1    1    0   
$EndComp
$Comp
L Switch:SW_Push SW1
U 1 1 5DCC7534
P 5400 2100
F 0 "SW1" H 5400 2385 50  0000 C CNN
F 1 "SW_OP" H 5400 2294 50  0000 C CNN
F 2 "foot:ITS-1105RT" H 5400 2300 50  0001 C CNN
F 3 "~" H 5400 2300 50  0001 C CNN
	1    5400 2100
	1    0    0    -1  
$EndComp
$Comp
L Switch:SW_Push SW2
U 1 1 5DDA89A7
P 5400 2500
F 0 "SW2" H 5400 2785 50  0000 C CNN
F 1 "SW_REG" H 5400 2694 50  0000 C CNN
F 2 "foot:ITS-1105RT" H 5400 2700 50  0001 C CNN
F 3 "~" H 5400 2700 50  0001 C CNN
	1    5400 2500
	1    0    0    -1  
$EndComp
$Comp
L doorlock-rescue:SG-211V-New_Library U2
U 1 1 5DDBD0BF
P 9900 1600
F 0 "U2" H 9900 1917 50  0000 C CNN
F 1 "SG-211V" H 9900 1826 50  0000 C CNN
F 2 "foot:SG-211V" H 9900 1400 50  0001 C CNN
F 3 "https://everlighteurope.com/index.php?controller=attachment&id_attachment=5385" H 9900 1700 50  0001 C CNN
	1    9900 1600
	-1   0    0    -1  
$EndComp
$Comp
L doorlock-rescue:SG-211V-New_Library U3
U 1 1 5DDBF29E
P 9900 2150
F 0 "U3" H 9900 2467 50  0000 C CNN
F 1 "SG-211V" H 9900 2376 50  0000 C CNN
F 2 "foot:SG-211V" H 9900 1950 50  0001 C CNN
F 3 "https://everlighteurope.com/index.php?controller=attachment&id_attachment=5385" H 9900 2250 50  0001 C CNN
	1    9900 2150
	-1   0    0    -1  
$EndComp
$Comp
L Device:R R10
U 1 1 5DDC6B00
P 10500 1250
F 0 "R10" H 10430 1204 50  0000 R CNN
F 1 "R" H 10430 1295 50  0000 R CNN
F 2 "Resistor_SMD:R_1206_3216Metric_Pad1.42x1.75mm_HandSolder" V 10430 1250 50  0001 C CNN
F 3 "~" H 10500 1250 50  0001 C CNN
	1    10500 1250
	-1   0    0    1   
$EndComp
Wire Wire Line
	8700 550  10500 550 
Wire Wire Line
	10500 550  10500 1100
Connection ~ 8700 550 
Wire Wire Line
	10500 1400 10500 1500
Wire Wire Line
	10500 1500 10200 1500
Wire Wire Line
	10500 1500 10500 2050
Wire Wire Line
	10500 2050 10200 2050
Connection ~ 10500 1500
Wire Wire Line
	4000 2850 4000 3700
Wire Wire Line
	10300 5300 10300 2250
Wire Wire Line
	10300 1700 10200 1700
Connection ~ 10300 5300
Wire Wire Line
	10300 5300 10450 5300
Wire Wire Line
	10200 2250 10300 2250
Connection ~ 10300 2250
Wire Wire Line
	10300 2250 10300 1700
Wire Wire Line
	9200 1100 9600 1100
Wire Wire Line
	9600 1100 9600 1150
Connection ~ 9200 1100
Wire Wire Line
	9600 1700 9350 1700
Wire Wire Line
	9350 750  6500 750 
Wire Wire Line
	6500 750  6500 1600
Wire Wire Line
	5600 2800 5850 2800
$Comp
L Device:R R2
U 1 1 5DE1588E
P 6000 2100
F 0 "R2" H 5930 2054 50  0000 R CNN
F 1 "R" H 5930 2145 50  0000 R CNN
F 2 "Resistor_SMD:R_1206_3216Metric_Pad1.42x1.75mm_HandSolder" V 5930 2100 50  0001 C CNN
F 3 "~" H 6000 2100 50  0001 C CNN
	1    6000 2100
	0    1    1    0   
$EndComp
Wire Wire Line
	5600 2100 5850 2100
Wire Wire Line
	5600 2500 5850 2500
Wire Wire Line
	5600 3000 5850 3000
Wire Wire Line
	6150 2800 6750 2800
Wire Wire Line
	6150 2100 6850 2100
Wire Wire Line
	6850 2100 6850 2200
Wire Wire Line
	6300 3250 6300 2500
Wire Wire Line
	6300 2500 6150 2500
Wire Wire Line
	1800 3050 1950 3050
Wire Wire Line
	1950 3050 1950 3350
Wire Wire Line
	2650 3050 4950 3050
Wire Wire Line
	4950 3050 4950 1900
Wire Wire Line
	1800 4150 1800 3900
Text Label 4000 5300 0    50   ~ 0
GND
Text Label 5000 1100 0    50   ~ 0
5V
Wire Wire Line
	7100 1300 4300 1300
Wire Wire Line
	4300 1300 4300 2350
Connection ~ 4300 2350
Wire Wire Line
	4200 2600 4200 1400
Wire Wire Line
	4100 1500 4100 2600
Wire Wire Line
	5200 2900 5200 2500
Wire Wire Line
	5200 650  9200 650 
Wire Wire Line
	9200 650  9200 1000
Connection ~ 5200 2100
Wire Wire Line
	5200 2100 5200 650 
Connection ~ 5200 2500
Wire Wire Line
	5200 2500 5200 2100
Text Label 5200 650  0    50   ~ 0
3V3
Wire Wire Line
	4000 1100 5000 1100
Wire Wire Line
	850  900  950  900 
Wire Wire Line
	4400 2600 4400 500 
Wire Wire Line
	850  500  4400 500 
Wire Wire Line
	4400 500  11150 500 
Connection ~ 4400 500 
$Comp
L Device:D D1
U 1 1 5DCDCD9D
P 1100 900
F 0 "D1" H 1100 684 50  0000 C CNN
F 1 "D" H 1100 775 50  0000 C CNN
F 2 "Diode_SMD:D_SMA_Handsoldering" H 1100 900 50  0001 C CNN
F 3 "~" H 1100 900 50  0001 C CNN
	1    1100 900 
	-1   0    0    1   
$EndComp
Wire Wire Line
	1250 900  1350 900 
Wire Wire Line
	9050 5500 10450 5500
Wire Wire Line
	5000 1100 7100 1100
Wire Wire Line
	10450 6100 8400 6100
Wire Wire Line
	10000 4300 10000 2500
Wire Wire Line
	10000 2500 9250 2500
Wire Wire Line
	9250 2500 9250 1300
Wire Wire Line
	10050 4950 10050 2450
Wire Wire Line
	10050 2450 9300 2450
Wire Wire Line
	9300 2450 9300 2200
Wire Wire Line
	7600 2700 7700 2700
Wire Wire Line
	7700 2700 7700 6200
Wire Wire Line
	9600 4300 10000 4300
Wire Wire Line
	9700 4650 9700 5900
Wire Wire Line
	9600 4950 10050 4950
$Comp
L Transistor_BJT:2N2219 Q9
U 1 1 5E101851
P 9700 800
F 0 "Q9" H 9891 754 50  0000 L CNN
F 1 "2N2222" H 9891 845 50  0000 L CNN
F 2 "Package_TO_SOT_SMD:SOT-23" H 9900 725 50  0001 L CIN
F 3 "" H 9700 800 50  0001 L CNN
	1    9700 800 
	-1   0    0    1   
$EndComp
$Comp
L Transistor_BJT:2N2219 Q10
U 1 1 5E108DAA
P 10200 800
F 0 "Q10" H 10391 754 50  0000 L CNN
F 1 "2N2222" H 10391 845 50  0000 L CNN
F 2 "Package_TO_SOT_SMD:SOT-23" H 10400 725 50  0001 L CIN
F 3 "" H 10200 800 50  0001 L CNN
	1    10200 800 
	-1   0    0    1   
$EndComp
$Comp
L Device:R R8
U 1 1 5E10947F
P 9600 1300
F 0 "R8" H 9530 1254 50  0000 R CNN
F 1 "R" H 9530 1345 50  0000 R CNN
F 2 "Resistor_SMD:R_1206_3216Metric_Pad1.42x1.75mm_HandSolder" V 9530 1300 50  0001 C CNN
F 3 "~" H 9600 1300 50  0001 C CNN
	1    9600 1300
	-1   0    0    1   
$EndComp
Wire Wire Line
	9600 1450 9600 1500
Wire Wire Line
	9350 750  9350 600 
Wire Wire Line
	9350 600  9600 600 
Wire Wire Line
	9350 1700 9350 1050
Wire Wire Line
	9350 1050 9900 1050
Wire Wire Line
	9900 1050 9900 800 
Connection ~ 9200 1000
Wire Wire Line
	9200 1000 9200 1100
Wire Wire Line
	9600 1000 10100 1000
Connection ~ 9600 1000
Wire Wire Line
	10150 600  10100 600 
Wire Wire Line
	9950 600  9950 650 
Wire Wire Line
	9950 650  9250 650 
Wire Wire Line
	9250 650  9250 600 
Wire Wire Line
	9250 600  6400 600 
Wire Wire Line
	6400 600  6400 1800
Connection ~ 10100 600 
Wire Wire Line
	10100 600  9950 600 
Wire Wire Line
	6500 1600 7100 1600
Wire Wire Line
	9600 2400 10800 2400
Wire Wire Line
	10800 2400 10800 800 
Wire Wire Line
	10800 800  10400 800 
Wire Wire Line
	9600 2250 9600 2400
Wire Wire Line
	9600 1500 9500 1500
Wire Wire Line
	9500 1500 9500 2050
Wire Wire Line
	9500 2050 9600 2050
Connection ~ 9600 1500
Wire Wire Line
	9200 1000 9600 1000
Wire Wire Line
	7100 2100 7000 2100
Wire Wire Line
	7000 2100 7000 3350
Wire Wire Line
	1950 3350 7000 3350
Wire Wire Line
	7100 1800 6400 1800
Wire Wire Line
	7100 1900 4950 1900
Wire Wire Line
	7100 2000 6700 2000
Wire Wire Line
	6700 2000 6700 5300
Connection ~ 6700 5300
Wire Wire Line
	6700 5300 8150 5300
Wire Wire Line
	7100 2200 6850 2200
Wire Wire Line
	6750 2800 6750 2300
Wire Wire Line
	6750 2300 7100 2300
Wire Wire Line
	6150 3000 6800 3000
Wire Wire Line
	6800 3000 6800 2600
Wire Wire Line
	7100 2600 6800 2600
Wire Wire Line
	6850 4150 6850 2800
Wire Wire Line
	6850 2800 7100 2800
Wire Wire Line
	6850 4150 1800 4150
Wire Wire Line
	7100 2900 6900 2900
Wire Wire Line
	6900 2900 6900 3900
Wire Wire Line
	2650 3900 6900 3900
Wire Wire Line
	7600 1900 9200 1900
Wire Wire Line
	9200 1900 9200 2750
Wire Wire Line
	7600 2300 8150 2300
Wire Wire Line
	8150 2300 8150 5300
Connection ~ 8150 5300
Wire Wire Line
	7600 2900 7750 2900
Wire Wire Line
	7750 2900 7750 3250
Wire Wire Line
	7750 3250 6300 3250
Wire Wire Line
	7600 2800 7800 2800
Wire Wire Line
	7800 2800 7800 6000
Wire Wire Line
	7800 6000 10450 6000
Wire Wire Line
	7700 6200 10450 6200
Wire Wire Line
	7600 2100 8550 2100
Wire Wire Line
	8550 2600 9750 2600
Wire Wire Line
	7600 2500 8400 2500
Wire Wire Line
	8400 2500 8400 6100
Wire Wire Line
	10450 6300 7900 6300
Wire Wire Line
	7900 6300 7900 2600
Wire Wire Line
	7900 2600 7600 2600
Wire Wire Line
	7100 1500 4100 1500
Wire Wire Line
	4200 1400 7100 1400
Wire Wire Line
	8150 5300 8300 5300
Wire Wire Line
	8550 2100 8550 2600
Wire Wire Line
	7600 1500 8300 1500
Wire Wire Line
	8300 1500 8300 5300
Connection ~ 8300 5300
Wire Wire Line
	8300 5300 10300 5300
Wire Wire Line
	8950 1200 8950 5600
Wire Wire Line
	7600 2200 9300 2200
Wire Wire Line
	9200 3650 9000 3650
Wire Wire Line
	9000 3650 9000 4950
Wire Wire Line
	9000 4950 9200 4950
Connection ~ 9200 3650
$Comp
L Device:R R6
U 1 1 5E34F319
P 8800 3450
F 0 "R6" H 8730 3404 50  0000 R CNN
F 1 "R" H 8730 3495 50  0000 R CNN
F 2 "Resistor_SMD:R_1206_3216Metric_Pad1.42x1.75mm_HandSolder" V 8730 3450 50  0001 C CNN
F 3 "~" H 8800 3450 50  0001 C CNN
	1    8800 3450
	-1   0    0    1   
$EndComp
Wire Wire Line
	8800 3300 8800 1100
Connection ~ 8800 1100
Wire Wire Line
	8800 1100 9200 1100
Wire Wire Line
	8800 4300 9200 4300
Wire Wire Line
	8800 3600 8800 4300
Wire Wire Line
	7800 1300 7600 1300
$Comp
L Device:R R7
U 1 1 5DD0ECBC
P 7950 1300
F 0 "R7" H 7880 1254 50  0000 R CNN
F 1 "R" H 7880 1345 50  0000 R CNN
F 2 "Resistor_SMD:R_1206_3216Metric_Pad1.42x1.75mm_HandSolder" V 7880 1300 50  0001 C CNN
F 3 "~" H 7950 1300 50  0001 C CNN
	1    7950 1300
	0    1    1    0   
$EndComp
Wire Wire Line
	8850 1200 8950 1200
Wire Wire Line
	8850 1250 8850 1200
Wire Wire Line
	7600 1200 8250 1200
Wire Wire Line
	9250 1300 8250 1300
Wire Wire Line
	8250 1300 8250 1200
Wire Wire Line
	8100 1300 8200 1300
Wire Wire Line
	8200 1300 8200 1250
Wire Wire Line
	8200 1250 8850 1250
$EndSCHEMATC
