%!PS-Adobe-3.0
%%Creator: PCBNEW
%%CreationDate: Tue Nov 12 21:05:20 2019
%%Title: C:\Users\ne129\Desktop\cad\doorlock2\doorlock\doorlock-Edge_Cuts.ps
%%Pages: 1
%%PageOrder: Ascend
%%BoundingBox: 0 0 596 842
%%DocumentMedia: A4 595 842 0 () ()
%%Orientation: Landscape
%%EndComments
%%BeginProlog
/line { newpath moveto lineto stroke } bind def
/cir0 { newpath 0 360 arc stroke } bind def
/cir1 { newpath 0 360 arc gsave fill grestore stroke } bind def
/cir2 { newpath 0 360 arc gsave fill grestore stroke } bind def
/arc0 { newpath arc stroke } bind def
/arc1 { newpath 4 index 4 index moveto arc closepath gsave fill
    grestore stroke } bind def
/arc2 { newpath 4 index 4 index moveto arc closepath gsave fill
    grestore stroke } bind def
/poly0 { stroke } bind def
/poly1 { closepath gsave fill grestore stroke } bind def
/poly2 { closepath gsave fill grestore stroke } bind def
/rect0 { rectstroke } bind def
/rect1 { rectfill } bind def
/rect2 { rectfill } bind def
/linemode0 { 0 setlinecap 0 setlinejoin 0 setlinewidth } bind def
/linemode1 { 1 setlinecap 1 setlinejoin } bind def
/dashedline { [200] 100 setdash } bind def
/solidline { [] 0 setdash } bind def
/phantomshow { moveto
    /KicadFont findfont 0.000001 scalefont setfont
    show } bind def
/textshow { gsave
    findfont exch scalefont setfont concat 1 scale 0 0 moveto show
    } bind def
/reencodefont {
  findfont dup length dict begin
  { 1 index /FID ne
    { def }
    { pop pop } ifelse
  } forall
  /Encoding ISOLatin1Encoding def
  currentdict
  end } bind def
/KicadFont /Helvetica reencodefont definefont pop
/KicadFont-Bold /Helvetica-Bold reencodefont definefont pop
/KicadFont-Oblique /Helvetica-Oblique reencodefont definefont pop
/KicadFont-BoldOblique /Helvetica-BoldOblique reencodefont definefont pop
%%EndProlog
%%Page: 1 1
%%BeginPageSetup
gsave
0.0072 0.0072 scale
linemode1
82680 0 translate 90 rotate
39.3701 setlinewidth
%%EndPageSetup
0 0 0 setrgbcolor
0 0 0 setrgbcolor
19.685 setlinewidth
33070.9 54924.1 590.551 cir0
0 0 0 setrgbcolor
29527.6 72640.6 590.551 cir0
0 0 0 setrgbcolor
15157.5 72640.6 590.551 cir0
0 0 0 setrgbcolor
19291.3 62896.5 1968.5 cir0
0 0 0 setrgbcolor
6692.91 66439.8 590.551 cir0
0 0 0 setrgbcolor
newpath
5118.11 51577.6 moveto
13779.5 51577.6 lineto
stroke
0 0 0 setrgbcolor
newpath
13779.5 51577.6 moveto
13779.5 50396.5 lineto
stroke
0 0 0 setrgbcolor
newpath
13779.5 50396.5 moveto
27165.4 50396.5 lineto
stroke
0 0 0 setrgbcolor
newpath
27165.4 50396.5 moveto
27165.4 51577.6 lineto
stroke
0 0 0 setrgbcolor
newpath
27165.4 51577.6 moveto
42913.4 51577.6 lineto
stroke
0 0 0 setrgbcolor
newpath
42913.4 77561.9 moveto
42913.4 51577.6 lineto
stroke
0 0 0 setrgbcolor
newpath
34645.7 77561.9 moveto
42913.4 77561.9 lineto
stroke
0 0 0 setrgbcolor
newpath
34645.7 74018.6 moveto
34645.7 77561.9 lineto
stroke
0 0 0 setrgbcolor
newpath
27559.1 74018.6 moveto
34645.7 74018.6 lineto
stroke
0 0 0 setrgbcolor
newpath
27559.1 75987.1 moveto
27559.1 74018.6 lineto
stroke
0 0 0 setrgbcolor
newpath
12992.1 75987.1 moveto
27559.1 75987.1 lineto
stroke
0 0 0 setrgbcolor
newpath
5118.11 67719.4 moveto
5118.11 51577.6 lineto
stroke
0 0 0 setrgbcolor
newpath
6692.91 67719.4 moveto
5118.11 67719.4 lineto
stroke
0 0 0 setrgbcolor
newpath
6692.91 72443.8 moveto
6692.91 67719.4 lineto
stroke
0 0 0 setrgbcolor
newpath
5118.11 72443.8 moveto
6692.91 72443.8 lineto
stroke
0 0 0 setrgbcolor
newpath
5118.11 76774.5 moveto
5118.11 72443.8 lineto
stroke
0 0 0 setrgbcolor
newpath
12992.1 76774.5 moveto
12992.1 75987.1 lineto
stroke
0 0 0 setrgbcolor
newpath
5118.11 76774.5 moveto
12992.1 76774.5 lineto
stroke
showpage
grestore
%%EOF
