EESchema Schematic File Version 4
LIBS:doorlock-cache
EELAYER 29 0
EELAYER END
$Descr A4 11693 8268
encoding utf-8
Sheet 1 1
Title ""
Date ""
Rev ""
Comp ""
Comment1 ""
Comment2 ""
Comment3 ""
Comment4 ""
$EndDescr
$Comp
L Connector_Generic:Conn_02x20_Odd_Even J3
U 1 1 5D94AF6E
P 5950 1800
F 0 "J3" H 6000 2917 50  0000 C CNN
F 1 "Conn_Rasp" H 6000 2826 50  0000 C CNN
F 2 "Connector_PinSocket_2.54mm:PinSocket_2x20_P2.54mm_Vertical" H 5950 1800 50  0001 C CNN
F 3 "~" H 5950 1800 50  0001 C CNN
	1    5950 1800
	-1   0    0    -1  
$EndComp
$Comp
L power:+BATT #PWR0101
U 1 1 5D95693D
P 550 700
F 0 "#PWR0101" H 550 550 50  0001 C CNN
F 1 "+BATT" H 565 873 50  0000 C CNN
F 2 "" H 550 700 50  0001 C CNN
F 3 "" H 550 700 50  0001 C CNN
	1    550  700 
	1    0    0    -1  
$EndComp
$Comp
L power:-BATT #PWR0102
U 1 1 5D957780
P 600 3050
F 0 "#PWR0102" H 600 2900 50  0001 C CNN
F 1 "-BATT" H 615 3223 50  0000 C CNN
F 2 "" H 600 3050 50  0001 C CNN
F 3 "" H 600 3050 50  0001 C CNN
	1    600  3050
	1    0    0    -1  
$EndComp
$Comp
L Regulator_Switching:LM2575-5.0BU U1
U 1 1 5D958E7C
P 1750 1000
F 0 "U1" H 1750 1367 50  0000 C CNN
F 1 "LM2575-5.0BU" H 1750 1276 50  0000 C CNN
F 2 "Package_TO_SOT_SMD:TO-263-5_TabPin3" H 1750 750 50  0001 L CIN
F 3 "http://ww1.microchip.com/downloads/en/DeviceDoc/lm2575.pdf" H 1750 1000 50  0001 C CNN
	1    1750 1000
	1    0    0    -1  
$EndComp
$Comp
L Device:C C1
U 1 1 5D95BE77
P 850 1250
F 0 "C1" H 965 1296 50  0000 L CNN
F 1 "C" H 965 1205 50  0000 L CNN
F 2 "Capacitor_SMD:CP_Elec_8x10" H 888 1100 50  0001 C CNN
F 3 "~" H 850 1250 50  0001 C CNN
	1    850  1250
	1    0    0    -1  
$EndComp
$Comp
L Device:C C2
U 1 1 5D95CB48
P 3050 1650
F 0 "C2" H 3165 1696 50  0000 L CNN
F 1 "C" H 3165 1605 50  0000 L CNN
F 2 "Capacitor_SMD:CP_Elec_8x10" H 3088 1500 50  0001 C CNN
F 3 "~" H 3050 1650 50  0001 C CNN
	1    3050 1650
	1    0    0    -1  
$EndComp
$Comp
L Device:L L1
U 1 1 5D95D9C7
P 2650 1100
F 0 "L1" V 2840 1100 50  0000 C CNN
F 1 "L" V 2749 1100 50  0000 C CNN
F 2 "Inductor_SMD:L_6.3x6.3_H3" H 2650 1100 50  0001 C CNN
F 3 "~" H 2650 1100 50  0001 C CNN
	1    2650 1100
	0    -1   -1   0   
$EndComp
Wire Wire Line
	550  700  550  750 
Wire Wire Line
	600  3050 850  3050
Wire Wire Line
	850  3050 850  1400
Wire Wire Line
	850  900  850  1100
Wire Wire Line
	850  900  1250 900 
Wire Wire Line
	850  3050 1250 3050
Wire Wire Line
	1250 3050 1250 1100
Connection ~ 850  3050
Wire Wire Line
	1250 3050 1750 3050
Wire Wire Line
	1750 3050 1750 1300
Connection ~ 1250 3050
Wire Wire Line
	2250 1100 2500 1100
Wire Wire Line
	2250 900  3050 900 
Wire Wire Line
	2800 1100 3050 1100
Connection ~ 3050 1100
Wire Wire Line
	3050 1100 3050 1500
Wire Wire Line
	3050 1800 3050 3050
Wire Wire Line
	3050 3050 1750 3050
Connection ~ 1750 3050
$Comp
L Connector_Generic:Conn_01x04 J2
U 1 1 5D979230
P 3350 3400
F 0 "J2" V 3222 3580 50  0000 L CNN
F 1 "HEADER_UART" V 3313 3580 50  0000 L CNN
F 2 "Connector_PinHeader_2.54mm:PinHeader_1x04_P2.54mm_Horizontal" H 3350 3400 50  0001 C CNN
F 3 "~" H 3350 3400 50  0001 C CNN
	1    3350 3400
	0    1    1    0   
$EndComp
Wire Wire Line
	3050 900  3050 1100
Wire Wire Line
	5650 900  5500 900 
Connection ~ 3050 900 
Wire Wire Line
	3450 3200 3450 900 
Connection ~ 3450 900 
Wire Wire Line
	3450 900  3050 900 
$Comp
L Diode:1N5819 D1
U 1 1 5DB8B1A5
P 700 900
F 0 "D1" H 700 1116 50  0000 C CNN
F 1 "1N5819" H 700 1025 50  0000 C CNN
F 2 "Diode_SMD:D_SMA_Handsoldering" H 700 725 50  0001 C CNN
F 3 "http://www.vishay.com/docs/88525/1n5817.pdf" H 700 900 50  0001 C CNN
	1    700  900 
	1    0    0    -1  
$EndComp
Connection ~ 850  900 
Wire Wire Line
	3050 3050 3350 3050
Wire Wire Line
	3350 3050 3350 3200
Connection ~ 3050 3050
Wire Wire Line
	3050 3050 3050 3500
Wire Wire Line
	3050 3500 3650 3500
Wire Wire Line
	3150 3200 3150 1300
Wire Wire Line
	3150 1300 5650 1300
Wire Wire Line
	3250 3200 3250 1200
Wire Wire Line
	3250 1200 5650 1200
$Comp
L Connector_Generic:Conn_01x02 J1
U 1 1 5DB99F18
P 700 4050
F 0 "J1" H 618 4267 50  0000 C CNN
F 1 "HEADER_MOTOR" H 618 4176 50  0000 C CNN
F 2 "Connector_PinHeader_2.00mm:PinHeader_1x02_P2.00mm_Horizontal" H 700 4050 50  0001 C CNN
F 3 "~" H 700 4050 50  0001 C CNN
	1    700  4050
	-1   0    0    -1  
$EndComp
$Comp
L Transistor_BJT:2N2219 Q1
U 1 1 5DB9FBBD
P 2000 3800
F 0 "Q1" H 2191 3846 50  0000 L CNN
F 1 "2N2222" H 2191 3755 50  0000 L CNN
F 2 "Package_TO_SOT_SMD:SOT-23" H 2200 3725 50  0001 L CIN
F 3 "http://www.devicemart.co.kr/goods/download?id=5526&rank=1" H 2000 3800 50  0001 L CNN
	1    2000 3800
	-1   0    0    -1  
$EndComp
$Comp
L Transistor_BJT:2N2219 Q2
U 1 1 5DBA833D
P 2000 4400
F 0 "Q2" H 2191 4446 50  0000 L CNN
F 1 "2N2219" H 2191 4355 50  0000 L CNN
F 2 "Package_TO_SOT_SMD:SOT-23" H 2200 4325 50  0001 L CIN
F 3 "http://www.devicemart.co.kr/goods/download?id=5526&rank=1" H 2000 4400 50  0001 L CNN
	1    2000 4400
	-1   0    0    -1  
$EndComp
Wire Wire Line
	3550 900  3550 3600
Connection ~ 3550 900 
Wire Wire Line
	3550 900  3450 900 
Wire Wire Line
	3550 3600 3550 4200
Connection ~ 3550 3600
Wire Wire Line
	1900 4000 1900 4050
Wire Wire Line
	1900 4600 900  4600
Wire Wire Line
	900  4600 900  4150
Connection ~ 1900 4600
Wire Wire Line
	1900 4050 1350 4050
Wire Wire Line
	1350 4050 1350 3500
Wire Wire Line
	1350 3500 3050 3500
Connection ~ 1350 4050
Wire Wire Line
	1350 4050 900  4050
Connection ~ 3050 3500
Wire Wire Line
	3650 1100 3650 3500
Wire Wire Line
	3650 1100 5650 1100
Wire Wire Line
	3650 3500 3650 4600
Connection ~ 3650 3500
Wire Wire Line
	3650 4600 1900 4600
$Comp
L Switch:SW_SPDT SW1
U 1 1 5DBBB150
P 4700 2700
F 0 "SW1" H 4700 2985 50  0000 C CNN
F 1 "SW_CLCK" H 4700 2894 50  0000 C CNN
F 2 "foot:CM-1283R" H 4700 2700 50  0001 C CNN
F 3 "~" H 4700 2700 50  0001 C CNN
	1    4700 2700
	1    0    0    -1  
$EndComp
Wire Wire Line
	6150 900  6600 900 
Wire Wire Line
	6600 550  6600 900 
$Comp
L Device:Buzzer BZ1
U 1 1 5DBC9BD4
P 700 5400
F 0 "BZ1" H 705 5690 50  0000 C CNN
F 1 "Buzzer" H 705 5599 50  0000 C CNN
F 2 "foot:FQ-014" V 675 5500 50  0001 C CNN
F 3 "~" V 675 5500 50  0001 C CNN
	1    700  5400
	-1   0    0    -1  
$EndComp
$Comp
L Transistor_BJT:2N2219 Q3
U 1 1 5DBCB5A1
P 2000 5000
F 0 "Q3" H 2191 5046 50  0000 L CNN
F 1 "2N2222" H 2191 4955 50  0000 L CNN
F 2 "Package_TO_SOT_SMD:SOT-23" H 2200 4925 50  0001 L CIN
F 3 "" H 2000 5000 50  0001 L CNN
	1    2000 5000
	-1   0    0    -1  
$EndComp
$Comp
L Transistor_BJT:2N2219 Q4
U 1 1 5DBCC9BD
P 2000 5650
F 0 "Q4" H 2191 5696 50  0000 L CNN
F 1 "2N2222" H 2191 5605 50  0000 L CNN
F 2 "Package_TO_SOT_SMD:SOT-23" H 2200 5575 50  0001 L CIN
F 3 "" H 2000 5650 50  0001 L CNN
	1    2000 5650
	-1   0    0    -1  
$EndComp
Wire Wire Line
	3550 4200 1900 4200
Wire Wire Line
	3550 3600 1900 3600
Wire Wire Line
	3550 4200 3550 4800
Wire Wire Line
	3550 4800 1900 4800
Connection ~ 3550 4200
Wire Wire Line
	3550 4800 3550 5450
Wire Wire Line
	3550 5450 1900 5450
Connection ~ 3550 4800
Wire Wire Line
	1900 5200 1900 5300
Wire Wire Line
	800  5500 800  5950
Wire Wire Line
	800  5950 3650 5950
Wire Wire Line
	3650 5950 3650 4600
Connection ~ 3650 4600
$Comp
L pspice:R R1
U 1 1 5DBF6E14
P 1400 5600
F 0 "R1" H 1468 5646 50  0000 L CNN
F 1 "R" H 1468 5555 50  0000 L CNN
F 2 "Resistor_SMD:R_1206_3216Metric_Pad1.42x1.75mm_HandSolder" H 1400 5600 50  0001 C CNN
F 3 "~" H 1400 5600 50  0001 C CNN
	1    1400 5600
	1    0    0    -1  
$EndComp
Wire Wire Line
	800  5300 1400 5300
Wire Wire Line
	1400 5350 1400 5300
Connection ~ 1400 5300
Wire Wire Line
	1400 5300 1900 5300
Wire Wire Line
	1400 5850 1900 5850
Wire Wire Line
	5650 1600 3750 1600
Wire Wire Line
	3750 1600 3750 4400
Wire Wire Line
	3750 4400 2200 4400
Wire Wire Line
	2200 3800 7450 3800
Wire Wire Line
	6150 1500 7550 1500
Wire Wire Line
	7550 1500 7550 5650
Wire Wire Line
	7550 5650 2200 5650
Wire Wire Line
	6150 2700 7350 2700
Wire Wire Line
	7350 2700 7350 5000
Wire Wire Line
	7350 5000 2200 5000
$Comp
L Switch:SW_Push SW2
U 1 1 5DC13152
P 5200 2100
F 0 "SW2" H 5200 2385 50  0000 C CNN
F 1 "SW_OP" H 5200 2294 50  0000 C CNN
F 2 "foot:ITS-1105RT" H 5200 2300 50  0001 C CNN
F 3 "~" H 5200 2300 50  0001 C CNN
	1    5200 2100
	1    0    0    -1  
$EndComp
Wire Wire Line
	5650 2600 5500 2600
$Comp
L Switch:SW_Push SW3
U 1 1 5DC19DFC
P 5300 3150
F 0 "SW3" H 5300 3435 50  0000 C CNN
F 1 "SW_REG" H 5300 3344 50  0000 C CNN
F 2 "foot:ITS-1105RT" H 5300 3350 50  0001 C CNN
F 3 "~" H 5300 3350 50  0001 C CNN
	1    5300 3150
	1    0    0    -1  
$EndComp
Wire Wire Line
	6150 1600 7450 1600
Wire Wire Line
	6150 1400 7650 1400
Wire Wire Line
	7450 1600 7450 3800
Wire Wire Line
	7650 1400 7650 3150
Wire Wire Line
	5500 3150 5750 3150
$Comp
L pspice:R R5
U 1 1 5DC4FB8C
P 5500 2350
F 0 "R5" H 5568 2396 50  0000 L CNN
F 1 "R" H 5568 2305 50  0000 L CNN
F 2 "Resistor_SMD:R_1206_3216Metric_Pad1.42x1.75mm_HandSolder" H 5500 2350 50  0001 C CNN
F 3 "~" H 5500 2350 50  0001 C CNN
	1    5500 2350
	1    0    0    -1  
$EndComp
Wire Wire Line
	5400 2100 5500 2100
$Comp
L pspice:R R4
U 1 1 5DC65D21
P 5300 2800
F 0 "R4" V 5095 2800 50  0000 C CNN
F 1 "R" V 5186 2800 50  0000 C CNN
F 2 "Resistor_SMD:R_1206_3216Metric_Pad1.42x1.75mm_HandSolder" H 5300 2800 50  0001 C CNN
F 3 "~" H 5300 2800 50  0001 C CNN
	1    5300 2800
	0    1    1    0   
$EndComp
Wire Wire Line
	5550 2800 5650 2800
Wire Wire Line
	4900 2800 5050 2800
$Comp
L pspice:R R3
U 1 1 5DC71E6B
P 5300 2700
F 0 "R3" V 5095 2700 50  0000 C CNN
F 1 "R" V 5186 2700 50  0000 C CNN
F 2 "Resistor_SMD:R_1206_3216Metric_Pad1.42x1.75mm_HandSolder" H 5300 2700 50  0001 C CNN
F 3 "~" H 5300 2700 50  0001 C CNN
	1    5300 2700
	0    1    1    0   
$EndComp
Wire Wire Line
	4900 2600 5050 2600
Wire Wire Line
	5050 2600 5050 2700
Wire Wire Line
	5550 2700 5650 2700
$Comp
L pspice:R R6
U 1 1 5DC77DD8
P 6000 3150
F 0 "R6" V 5795 3150 50  0000 C CNN
F 1 "R" V 5886 3150 50  0000 C CNN
F 2 "Resistor_SMD:R_1206_3216Metric_Pad1.42x1.75mm_HandSolder" H 6000 3150 50  0001 C CNN
F 3 "~" H 6000 3150 50  0001 C CNN
	1    6000 3150
	0    1    1    0   
$EndComp
Wire Wire Line
	6250 3150 7650 3150
Wire Wire Line
	4500 550  4500 2100
Wire Wire Line
	4500 550  6600 550 
Wire Wire Line
	4500 2700 4500 3150
Wire Wire Line
	4500 3150 5100 3150
Connection ~ 4500 2700
Wire Wire Line
	5000 2100 4500 2100
Connection ~ 4500 2100
Wire Wire Line
	4500 2100 4500 2700
$Comp
L Sensor_Proximity:ITR8307-F43 U2
U 1 1 5DC8A57F
P 8350 1200
F 0 "U2" H 8350 1517 50  0000 C CNN
F 1 "SV-211V" H 8350 1426 50  0000 C CNN
F 2 "foot:SG-211V" H 8350 1000 50  0001 C CNN
F 3 "" H 8350 1300 50  0001 C CNN
	1    8350 1200
	-1   0    0    -1  
$EndComp
$Comp
L Sensor_Proximity:ITR8307-F43 U3
U 1 1 5DC937F0
P 8350 1750
F 0 "U3" H 8350 2067 50  0000 C CNN
F 1 "SV-211V" H 8350 1976 50  0000 C CNN
F 2 "foot:SG-211V" H 8350 1550 50  0001 C CNN
F 3 "" H 8350 1850 50  0001 C CNN
	1    8350 1750
	-1   0    0    -1  
$EndComp
Wire Wire Line
	3650 3500 8750 3500
Wire Wire Line
	8650 1850 8750 1850
Wire Wire Line
	8750 1850 8750 3500
Wire Wire Line
	8750 1850 8750 1300
Wire Wire Line
	8750 1300 8650 1300
Connection ~ 8750 1850
$Comp
L pspice:R R8
U 1 1 5DCAAC59
P 9150 1100
F 0 "R8" V 8945 1100 50  0000 C CNN
F 1 "R" V 9036 1100 50  0000 C CNN
F 2 "Resistor_SMD:R_1206_3216Metric_Pad1.42x1.75mm_HandSolder" H 9150 1100 50  0001 C CNN
F 3 "~" H 9150 1100 50  0001 C CNN
	1    9150 1100
	0    1    1    0   
$EndComp
$Comp
L pspice:R R9
U 1 1 5DCAB42E
P 9150 1650
F 0 "R9" V 8945 1650 50  0000 C CNN
F 1 "R" V 9036 1650 50  0000 C CNN
F 2 "Resistor_SMD:R_1206_3216Metric_Pad1.42x1.75mm_HandSolder" H 9150 1650 50  0001 C CNN
F 3 "~" H 9150 1650 50  0001 C CNN
	1    9150 1650
	0    1    1    0   
$EndComp
Wire Wire Line
	8650 1650 8900 1650
Wire Wire Line
	8650 1100 8900 1100
Wire Wire Line
	9500 600  9500 1100
Wire Wire Line
	9500 1100 9400 1100
Wire Wire Line
	5500 600  9500 600 
Wire Wire Line
	9500 1100 9500 1650
Wire Wire Line
	9500 1650 9400 1650
Connection ~ 9500 1100
$Comp
L pspice:R R2
U 1 1 5DCB7D19
P 5150 1400
F 0 "R2" V 4945 1400 50  0000 C CNN
F 1 "R" V 5036 1400 50  0000 C CNN
F 2 "Resistor_SMD:R_1206_3216Metric_Pad1.42x1.75mm_HandSolder" H 5150 1400 50  0001 C CNN
F 3 "~" H 5150 1400 50  0001 C CNN
	1    5150 1400
	0    1    1    0   
$EndComp
Wire Wire Line
	5400 1400 5650 1400
Wire Wire Line
	4900 1400 4750 1400
Wire Wire Line
	4750 1400 4750 800 
Wire Wire Line
	4750 800  7900 800 
Wire Wire Line
	7900 800  7900 1300
Wire Wire Line
	7900 1300 8050 1300
Wire Wire Line
	6600 900  7750 900 
Wire Wire Line
	8050 900  8050 1100
Connection ~ 6600 900 
$Comp
L pspice:R R7
U 1 1 5DCC4787
P 6750 2600
F 0 "R7" V 6545 2600 50  0000 C CNN
F 1 "R" V 6636 2600 50  0000 C CNN
F 2 "Resistor_SMD:R_1206_3216Metric_Pad1.42x1.75mm_HandSolder" H 6750 2600 50  0001 C CNN
F 3 "~" H 6750 2600 50  0001 C CNN
	1    6750 2600
	0    1    1    0   
$EndComp
Wire Wire Line
	6150 2600 6500 2600
Wire Wire Line
	7000 2600 8050 2600
Wire Wire Line
	8050 2600 8050 1850
Wire Wire Line
	7750 900  7750 1650
Wire Wire Line
	7750 1650 8050 1650
Connection ~ 7750 900 
Wire Wire Line
	7750 900  8050 900 
$Comp
L Connector_Generic:Conn_01x12 J4
U 1 1 5DCD475B
P 10750 5150
F 0 "J4" H 10830 5142 50  0000 L CNN
F 1 "KEYPAD" H 10830 5051 50  0000 L CNN
F 2 "Connector_PinHeader_2.00mm:PinHeader_2x06_P2.00mm_Horizontal" H 10750 5150 50  0001 C CNN
F 3 "~" H 10750 5150 50  0001 C CNN
	1    10750 5150
	1    0    0    -1  
$EndComp
Wire Wire Line
	7750 1650 7750 3600
Wire Wire Line
	7750 3600 10450 3600
Wire Wire Line
	10450 3600 10450 4750
Wire Wire Line
	10450 4750 10550 4750
Connection ~ 7750 1650
$Comp
L pspice:R R17
U 1 1 5DCF3FE6
P 10050 3700
F 0 "R17" V 9845 3700 50  0000 C CNN
F 1 "R" V 9936 3700 50  0000 C CNN
F 2 "Resistor_SMD:R_1206_3216Metric_Pad1.42x1.75mm_HandSolder" H 10050 3700 50  0001 C CNN
F 3 "~" H 10050 3700 50  0001 C CNN
	1    10050 3700
	0    1    1    0   
$EndComp
Wire Wire Line
	10550 4850 10300 4850
Wire Wire Line
	7250 1200 6150 1200
$Comp
L Transistor_BJT:2N2219 Q5
U 1 1 5DCFC8C1
P 10050 4650
F 0 "Q5" H 10240 4696 50  0000 L CNN
F 1 "2N2219" H 10240 4605 50  0000 L CNN
F 2 "Package_TO_SOT_SMD:SOT-23" H 10250 4575 50  0001 L CIN
F 3 "http://www.onsemi.com/pub_link/Collateral/2N2219-D.PDF" H 10050 4650 50  0001 L CNN
	1    10050 4650
	1    0    0    -1  
$EndComp
Wire Wire Line
	10300 4850 10300 3700
Wire Wire Line
	9800 3700 7250 3700
Wire Wire Line
	7250 3700 7250 1200
Wire Wire Line
	9500 1650 9500 3800
Wire Wire Line
	9500 3800 10150 3800
Wire Wire Line
	10150 3800 10150 4450
Connection ~ 9500 1650
Wire Wire Line
	10150 4850 10150 4950
Wire Wire Line
	10150 4950 10550 4950
Wire Wire Line
	6150 2300 7150 2300
Wire Wire Line
	7150 2300 7150 3900
Wire Wire Line
	7150 3900 9850 3900
Wire Wire Line
	9850 3900 9850 4650
Wire Wire Line
	550  750  1200 750 
Wire Wire Line
	1200 750  1200 500 
Wire Wire Line
	1200 500  11150 500 
Wire Wire Line
	11150 500  11150 5900
Wire Wire Line
	11150 5900 10450 5900
Wire Wire Line
	10450 5900 10450 5750
Wire Wire Line
	10450 5750 10550 5750
Connection ~ 550  750 
Wire Wire Line
	550  750  550  900 
$Comp
L pspice:R R10
U 1 1 5DD463F3
P 9700 5050
F 0 "R10" V 9495 5050 50  0000 C CNN
F 1 "R" V 9586 5050 50  0000 C CNN
F 2 "Resistor_SMD:R_1206_3216Metric_Pad1.42x1.75mm_HandSolder" H 9700 5050 50  0001 C CNN
F 3 "~" H 9700 5050 50  0001 C CNN
	1    9700 5050
	0    1    1    0   
$EndComp
$Comp
L pspice:R R11
U 1 1 5DD46996
P 9700 5150
F 0 "R11" V 9495 5150 50  0000 C CNN
F 1 "R" V 9586 5150 50  0000 C CNN
F 2 "Resistor_SMD:R_1206_3216Metric_Pad1.42x1.75mm_HandSolder" H 9700 5150 50  0001 C CNN
F 3 "~" H 9700 5150 50  0001 C CNN
	1    9700 5150
	0    1    1    0   
$EndComp
$Comp
L pspice:R R12
U 1 1 5DD475CB
P 9700 5250
F 0 "R12" V 9495 5250 50  0000 C CNN
F 1 "R" V 9586 5250 50  0000 C CNN
F 2 "Resistor_SMD:R_1206_3216Metric_Pad1.42x1.75mm_HandSolder" H 9700 5250 50  0001 C CNN
F 3 "~" H 9700 5250 50  0001 C CNN
	1    9700 5250
	0    1    1    0   
$EndComp
$Comp
L pspice:R R13
U 1 1 5DD47931
P 9700 5350
F 0 "R13" V 9495 5350 50  0000 C CNN
F 1 "R" V 9586 5350 50  0000 C CNN
F 2 "Resistor_SMD:R_1206_3216Metric_Pad1.42x1.75mm_HandSolder" H 9700 5350 50  0001 C CNN
F 3 "~" H 9700 5350 50  0001 C CNN
	1    9700 5350
	0    1    1    0   
$EndComp
$Comp
L pspice:R R14
U 1 1 5DD47D1B
P 9700 5450
F 0 "R14" V 9495 5450 50  0000 C CNN
F 1 "R" V 9586 5450 50  0000 C CNN
F 2 "Resistor_SMD:R_1206_3216Metric_Pad1.42x1.75mm_HandSolder" H 9700 5450 50  0001 C CNN
F 3 "~" H 9700 5450 50  0001 C CNN
	1    9700 5450
	0    1    1    0   
$EndComp
$Comp
L pspice:R R15
U 1 1 5DD480B2
P 9700 5550
F 0 "R15" V 9495 5550 50  0000 C CNN
F 1 "R" V 9586 5550 50  0000 C CNN
F 2 "Resistor_SMD:R_1206_3216Metric_Pad1.42x1.75mm_HandSolder" H 9700 5550 50  0001 C CNN
F 3 "~" H 9700 5550 50  0001 C CNN
	1    9700 5550
	0    1    1    0   
$EndComp
$Comp
L pspice:R R16
U 1 1 5DD48461
P 9700 5650
F 0 "R16" V 9495 5650 50  0000 C CNN
F 1 "R" V 9586 5650 50  0000 C CNN
F 2 "Resistor_SMD:R_1206_3216Metric_Pad1.42x1.75mm_HandSolder" H 9700 5650 50  0001 C CNN
F 3 "~" H 9700 5650 50  0001 C CNN
	1    9700 5650
	0    1    1    0   
$EndComp
Wire Wire Line
	10550 5050 9950 5050
Wire Wire Line
	10550 5150 9950 5150
Wire Wire Line
	10550 5250 9950 5250
Wire Wire Line
	10550 5350 9950 5350
Wire Wire Line
	10550 5450 9950 5450
Wire Wire Line
	10550 5550 9950 5550
Wire Wire Line
	10550 5650 9950 5650
Wire Wire Line
	6150 2400 7050 2400
Wire Wire Line
	7050 2400 7050 4000
Wire Wire Line
	7050 4000 9450 4000
Wire Wire Line
	9450 4000 9450 5050
Wire Wire Line
	5550 2100 5550 1950
Wire Wire Line
	5550 1950 4400 1950
Wire Wire Line
	4400 1950 4400 3250
Wire Wire Line
	4400 3250 6950 3250
Wire Wire Line
	6950 3250 6950 4100
Wire Wire Line
	6950 4100 9350 4100
Wire Wire Line
	9350 4100 9350 5150
Wire Wire Line
	9350 5150 9450 5150
Wire Wire Line
	5550 2100 5650 2100
Wire Wire Line
	5650 2000 4300 2000
Wire Wire Line
	4300 2000 4300 3350
Wire Wire Line
	4300 3350 6850 3350
Wire Wire Line
	6850 3350 6850 4200
Wire Wire Line
	6850 4200 9250 4200
Wire Wire Line
	9250 4200 9250 5250
Wire Wire Line
	9250 5250 9450 5250
Wire Wire Line
	5650 2400 4200 2400
Wire Wire Line
	4200 2400 4200 3400
Wire Wire Line
	4200 3400 6800 3400
Wire Wire Line
	6800 3400 6800 4300
Wire Wire Line
	6800 4300 9150 4300
Wire Wire Line
	9150 4300 9150 5350
Wire Wire Line
	9150 5350 9450 5350
Wire Wire Line
	6150 2000 6750 2000
Wire Wire Line
	6750 2000 6750 4400
Wire Wire Line
	6750 4400 9050 4400
Wire Wire Line
	9050 4400 9050 5450
Wire Wire Line
	9050 5450 9450 5450
Wire Wire Line
	6150 1800 6700 1800
Wire Wire Line
	6700 1800 6700 4500
Wire Wire Line
	6700 4500 8950 4500
Wire Wire Line
	8950 4500 8950 5550
Wire Wire Line
	8950 5550 9450 5550
Wire Wire Line
	6150 1900 6650 1900
Wire Wire Line
	6650 1900 6650 4600
Wire Wire Line
	6650 4600 8850 4600
Wire Wire Line
	8850 4600 8850 5650
Wire Wire Line
	8850 5650 9450 5650
Wire Wire Line
	600  3050 500  3050
Wire Wire Line
	500  3050 500  6300
Wire Wire Line
	500  6300 10950 6300
Wire Wire Line
	10950 6300 10950 4550
Wire Wire Line
	10950 4550 10550 4550
Wire Wire Line
	10550 4550 10550 4650
Connection ~ 600  3050
Wire Wire Line
	5500 600  5500 900 
Connection ~ 5500 900 
Wire Wire Line
	5500 900  3550 900 
$EndSCHEMATC
