(export (version D)
  (design
    (source C:\Users\ne129\Desktop\cad\doorlock\doorlock\doorlock.sch)
    (date "2019-11-01 오전 10:44:34")
    (tool "Eeschema (5.1.2)-2")
    (sheet (number 1) (name /) (tstamps /)
      (title_block
        (title)
        (company)
        (rev)
        (date)
        (source doorlock.sch)
        (comment (number 1) (value ""))
        (comment (number 2) (value ""))
        (comment (number 3) (value ""))
        (comment (number 4) (value "")))))
  (components
    (comp (ref J3)
      (value Conn_Rasp)
      (footprint Connector_PinSocket_2.54mm:PinSocket_2x20_P2.54mm_Vertical)
      (datasheet ~)
      (libsource (lib Connector_Generic) (part Conn_02x20_Odd_Even) (description "Generic connector, double row, 02x20, odd/even pin numbering scheme (row 1 odd numbers, row 2 even numbers), script generated (kicad-library-utils/schlib/autogen/connector/)"))
      (sheetpath (names /) (tstamps /))
      (tstamp 5D94AF6E))
    (comp (ref U1)
      (value LM2575-5.0BU)
      (footprint Package_TO_SOT_SMD:TO-263-5_TabPin3)
      (datasheet http://ww1.microchip.com/downloads/en/DeviceDoc/lm2575.pdf)
      (libsource (lib Regulator_Switching) (part LM2575-5.0BU) (description "Fixed 5.0V 52kHz Simple 1A Buck Regulator, TO-263"))
      (sheetpath (names /) (tstamps /))
      (tstamp 5D958E7C))
    (comp (ref C1)
      (value C)
      (footprint Capacitor_SMD:CP_Elec_8x10)
      (datasheet ~)
      (libsource (lib Device) (part C) (description "Unpolarized capacitor"))
      (sheetpath (names /) (tstamps /))
      (tstamp 5D95BE77))
    (comp (ref C2)
      (value C)
      (footprint Capacitor_SMD:CP_Elec_8x10)
      (datasheet ~)
      (libsource (lib Device) (part C) (description "Unpolarized capacitor"))
      (sheetpath (names /) (tstamps /))
      (tstamp 5D95CB48))
    (comp (ref L1)
      (value L)
      (footprint Inductor_SMD:L_6.3x6.3_H3)
      (datasheet ~)
      (libsource (lib Device) (part L) (description Inductor))
      (sheetpath (names /) (tstamps /))
      (tstamp 5D95D9C7))
    (comp (ref J2)
      (value HEADER_UART)
      (footprint Connector_PinHeader_2.54mm:PinHeader_1x04_P2.54mm_Horizontal)
      (datasheet ~)
      (libsource (lib Connector_Generic) (part Conn_01x04) (description "Generic connector, single row, 01x04, script generated (kicad-library-utils/schlib/autogen/connector/)"))
      (sheetpath (names /) (tstamps /))
      (tstamp 5D979230))
    (comp (ref D1)
      (value 1N5819)
      (footprint Diode_SMD:D_SMA_Handsoldering)
      (datasheet http://www.vishay.com/docs/88525/1n5817.pdf)
      (libsource (lib Diode) (part 1N5819) (description "40V 1A Schottky Barrier Rectifier Diode, DO-41"))
      (sheetpath (names /) (tstamps /))
      (tstamp 5DB8B1A5))
    (comp (ref J1)
      (value HEADER_MOTOR)
      (footprint Connector_PinHeader_2.00mm:PinHeader_1x02_P2.00mm_Horizontal)
      (datasheet ~)
      (libsource (lib Connector_Generic) (part Conn_01x02) (description "Generic connector, single row, 01x02, script generated (kicad-library-utils/schlib/autogen/connector/)"))
      (sheetpath (names /) (tstamps /))
      (tstamp 5DB99F18))
    (comp (ref Q1)
      (value 2N2219)
      (footprint Package_TO_SOT_SMD:SOT-23)
      (datasheet http://www.onsemi.com/pub_link/Collateral/2N2219-D.PDF)
      (libsource (lib Transistor_BJT) (part 2N2219) (description "800mA Ic, 50V Vce, NPN Transistor, TO-39"))
      (sheetpath (names /) (tstamps /))
      (tstamp 5DB9FBBD))
    (comp (ref Q2)
      (value 2N2219)
      (footprint Package_TO_SOT_SMD:SOT-23)
      (datasheet http://www.onsemi.com/pub_link/Collateral/2N2219-D.PDF)
      (libsource (lib Transistor_BJT) (part 2N2219) (description "800mA Ic, 50V Vce, NPN Transistor, TO-39"))
      (sheetpath (names /) (tstamps /))
      (tstamp 5DBA833D))
    (comp (ref SW1)
      (value SW_CLCK)
      (footprint foot:CM-1283R)
      (datasheet ~)
      (libsource (lib Switch) (part SW_SPDT) (description "Switch, single pole double throw"))
      (sheetpath (names /) (tstamps /))
      (tstamp 5DBBB150))
    (comp (ref BZ1)
      (value Buzzer)
      (footprint foot:FQ-014)
      (datasheet ~)
      (libsource (lib Device) (part Buzzer) (description "Buzzer, polarized"))
      (sheetpath (names /) (tstamps /))
      (tstamp 5DBC9BD4))
    (comp (ref Q3)
      (value 2N2219)
      (footprint Package_TO_SOT_SMD:SOT-23)
      (datasheet http://www.onsemi.com/pub_link/Collateral/2N2219-D.PDF)
      (libsource (lib Transistor_BJT) (part 2N2219) (description "800mA Ic, 50V Vce, NPN Transistor, TO-39"))
      (sheetpath (names /) (tstamps /))
      (tstamp 5DBCB5A1))
    (comp (ref Q4)
      (value 2N2219)
      (footprint Package_TO_SOT_SMD:SOT-23)
      (datasheet http://www.onsemi.com/pub_link/Collateral/2N2219-D.PDF)
      (libsource (lib Transistor_BJT) (part 2N2219) (description "800mA Ic, 50V Vce, NPN Transistor, TO-39"))
      (sheetpath (names /) (tstamps /))
      (tstamp 5DBCC9BD))
    (comp (ref R1)
      (value R)
      (footprint Resistor_SMD:R_1206_3216Metric_Pad1.42x1.75mm_HandSolder)
      (datasheet ~)
      (libsource (lib pspice) (part R) (description "Resistor symbol for simulation only"))
      (sheetpath (names /) (tstamps /))
      (tstamp 5DBF6E14))
    (comp (ref SW2)
      (value SW_OP)
      (footprint foot:ITS-1105RT)
      (datasheet ~)
      (libsource (lib Switch) (part SW_Push) (description "Push button switch, generic, two pins"))
      (sheetpath (names /) (tstamps /))
      (tstamp 5DC13152))
    (comp (ref SW3)
      (value SW_REG)
      (footprint foot:ITS-1105RT)
      (datasheet ~)
      (libsource (lib Switch) (part SW_Push) (description "Push button switch, generic, two pins"))
      (sheetpath (names /) (tstamps /))
      (tstamp 5DC19DFC))
    (comp (ref R5)
      (value R)
      (footprint Resistor_SMD:R_1206_3216Metric_Pad1.42x1.75mm_HandSolder)
      (datasheet ~)
      (libsource (lib pspice) (part R) (description "Resistor symbol for simulation only"))
      (sheetpath (names /) (tstamps /))
      (tstamp 5DC4FB8C))
    (comp (ref R4)
      (value R)
      (footprint Resistor_SMD:R_1206_3216Metric_Pad1.42x1.75mm_HandSolder)
      (datasheet ~)
      (libsource (lib pspice) (part R) (description "Resistor symbol for simulation only"))
      (sheetpath (names /) (tstamps /))
      (tstamp 5DC65D21))
    (comp (ref R3)
      (value R)
      (footprint Resistor_SMD:R_1206_3216Metric_Pad1.42x1.75mm_HandSolder)
      (datasheet ~)
      (libsource (lib pspice) (part R) (description "Resistor symbol for simulation only"))
      (sheetpath (names /) (tstamps /))
      (tstamp 5DC71E6B))
    (comp (ref R6)
      (value R)
      (footprint Resistor_SMD:R_1206_3216Metric_Pad1.42x1.75mm_HandSolder)
      (datasheet ~)
      (libsource (lib pspice) (part R) (description "Resistor symbol for simulation only"))
      (sheetpath (names /) (tstamps /))
      (tstamp 5DC77DD8))
    (comp (ref U2)
      (value SV-211V)
      (footprint foot:SG-211V)
      (libsource (lib Sensor_Proximity) (part ITR8307-F43) (description "Subminiature Reflective Optical Sensor, DIP-like THT-package"))
      (sheetpath (names /) (tstamps /))
      (tstamp 5DC8A57F))
    (comp (ref U3)
      (value SV-211V)
      (footprint foot:SG-211V)
      (libsource (lib Sensor_Proximity) (part ITR8307-F43) (description "Subminiature Reflective Optical Sensor, DIP-like THT-package"))
      (sheetpath (names /) (tstamps /))
      (tstamp 5DC937F0))
    (comp (ref R8)
      (value R)
      (footprint Resistor_SMD:R_1206_3216Metric_Pad1.42x1.75mm_HandSolder)
      (datasheet ~)
      (libsource (lib pspice) (part R) (description "Resistor symbol for simulation only"))
      (sheetpath (names /) (tstamps /))
      (tstamp 5DCAAC59))
    (comp (ref R9)
      (value R)
      (footprint Resistor_SMD:R_1206_3216Metric_Pad1.42x1.75mm_HandSolder)
      (datasheet ~)
      (libsource (lib pspice) (part R) (description "Resistor symbol for simulation only"))
      (sheetpath (names /) (tstamps /))
      (tstamp 5DCAB42E))
    (comp (ref R2)
      (value R)
      (footprint Resistor_SMD:R_1206_3216Metric_Pad1.42x1.75mm_HandSolder)
      (datasheet ~)
      (libsource (lib pspice) (part R) (description "Resistor symbol for simulation only"))
      (sheetpath (names /) (tstamps /))
      (tstamp 5DCB7D19))
    (comp (ref R7)
      (value R)
      (footprint Resistor_SMD:R_1206_3216Metric_Pad1.42x1.75mm_HandSolder)
      (datasheet ~)
      (libsource (lib pspice) (part R) (description "Resistor symbol for simulation only"))
      (sheetpath (names /) (tstamps /))
      (tstamp 5DCC4787))
    (comp (ref J4)
      (value KEYPAD)
      (footprint Connector_PinHeader_2.00mm:PinHeader_2x06_P2.00mm_Horizontal)
      (datasheet ~)
      (libsource (lib Connector_Generic) (part Conn_01x12) (description "Generic connector, single row, 01x12, script generated (kicad-library-utils/schlib/autogen/connector/)"))
      (sheetpath (names /) (tstamps /))
      (tstamp 5DCD475B))
    (comp (ref R17)
      (value R)
      (footprint Resistor_SMD:R_1206_3216Metric_Pad1.42x1.75mm_HandSolder)
      (datasheet ~)
      (libsource (lib pspice) (part R) (description "Resistor symbol for simulation only"))
      (sheetpath (names /) (tstamps /))
      (tstamp 5DCF3FE6))
    (comp (ref Q5)
      (value 2N2219)
      (footprint Package_TO_SOT_SMD:SOT-23)
      (datasheet http://www.onsemi.com/pub_link/Collateral/2N2219-D.PDF)
      (libsource (lib Transistor_BJT) (part 2N2219) (description "800mA Ic, 50V Vce, NPN Transistor, TO-39"))
      (sheetpath (names /) (tstamps /))
      (tstamp 5DCFC8C1))
    (comp (ref R10)
      (value R)
      (footprint Resistor_SMD:R_1206_3216Metric_Pad1.42x1.75mm_HandSolder)
      (datasheet ~)
      (libsource (lib pspice) (part R) (description "Resistor symbol for simulation only"))
      (sheetpath (names /) (tstamps /))
      (tstamp 5DD463F3))
    (comp (ref R11)
      (value R)
      (footprint Resistor_SMD:R_1206_3216Metric_Pad1.42x1.75mm_HandSolder)
      (datasheet ~)
      (libsource (lib pspice) (part R) (description "Resistor symbol for simulation only"))
      (sheetpath (names /) (tstamps /))
      (tstamp 5DD46996))
    (comp (ref R12)
      (value R)
      (footprint Resistor_SMD:R_1206_3216Metric_Pad1.42x1.75mm_HandSolder)
      (datasheet ~)
      (libsource (lib pspice) (part R) (description "Resistor symbol for simulation only"))
      (sheetpath (names /) (tstamps /))
      (tstamp 5DD475CB))
    (comp (ref R13)
      (value R)
      (footprint Resistor_SMD:R_1206_3216Metric_Pad1.42x1.75mm_HandSolder)
      (datasheet ~)
      (libsource (lib pspice) (part R) (description "Resistor symbol for simulation only"))
      (sheetpath (names /) (tstamps /))
      (tstamp 5DD47931))
    (comp (ref R14)
      (value R)
      (footprint Resistor_SMD:R_1206_3216Metric_Pad1.42x1.75mm_HandSolder)
      (datasheet ~)
      (libsource (lib pspice) (part R) (description "Resistor symbol for simulation only"))
      (sheetpath (names /) (tstamps /))
      (tstamp 5DD47D1B))
    (comp (ref R15)
      (value R)
      (footprint Resistor_SMD:R_1206_3216Metric_Pad1.42x1.75mm_HandSolder)
      (datasheet ~)
      (libsource (lib pspice) (part R) (description "Resistor symbol for simulation only"))
      (sheetpath (names /) (tstamps /))
      (tstamp 5DD480B2))
    (comp (ref R16)
      (value R)
      (footprint Resistor_SMD:R_1206_3216Metric_Pad1.42x1.75mm_HandSolder)
      (datasheet ~)
      (libsource (lib pspice) (part R) (description "Resistor symbol for simulation only"))
      (sheetpath (names /) (tstamps /))
      (tstamp 5DD48461)))
  (libparts
    (libpart (lib Connector_Generic) (part Conn_01x02)
      (description "Generic connector, single row, 01x02, script generated (kicad-library-utils/schlib/autogen/connector/)")
      (docs ~)
      (footprints
        (fp Connector*:*_1x??_*))
      (fields
        (field (name Reference) J)
        (field (name Value) Conn_01x02))
      (pins
        (pin (num 1) (name Pin_1) (type passive))
        (pin (num 2) (name Pin_2) (type passive))))
    (libpart (lib Connector_Generic) (part Conn_01x04)
      (description "Generic connector, single row, 01x04, script generated (kicad-library-utils/schlib/autogen/connector/)")
      (docs ~)
      (footprints
        (fp Connector*:*_1x??_*))
      (fields
        (field (name Reference) J)
        (field (name Value) Conn_01x04))
      (pins
        (pin (num 1) (name Pin_1) (type passive))
        (pin (num 2) (name Pin_2) (type passive))
        (pin (num 3) (name Pin_3) (type passive))
        (pin (num 4) (name Pin_4) (type passive))))
    (libpart (lib Connector_Generic) (part Conn_01x12)
      (description "Generic connector, single row, 01x12, script generated (kicad-library-utils/schlib/autogen/connector/)")
      (docs ~)
      (footprints
        (fp Connector*:*_1x??_*))
      (fields
        (field (name Reference) J)
        (field (name Value) Conn_01x12))
      (pins
        (pin (num 1) (name Pin_1) (type passive))
        (pin (num 2) (name Pin_2) (type passive))
        (pin (num 3) (name Pin_3) (type passive))
        (pin (num 4) (name Pin_4) (type passive))
        (pin (num 5) (name Pin_5) (type passive))
        (pin (num 6) (name Pin_6) (type passive))
        (pin (num 7) (name Pin_7) (type passive))
        (pin (num 8) (name Pin_8) (type passive))
        (pin (num 9) (name Pin_9) (type passive))
        (pin (num 10) (name Pin_10) (type passive))
        (pin (num 11) (name Pin_11) (type passive))
        (pin (num 12) (name Pin_12) (type passive))))
    (libpart (lib Connector_Generic) (part Conn_02x20_Odd_Even)
      (description "Generic connector, double row, 02x20, odd/even pin numbering scheme (row 1 odd numbers, row 2 even numbers), script generated (kicad-library-utils/schlib/autogen/connector/)")
      (docs ~)
      (footprints
        (fp Connector*:*_2x??_*))
      (fields
        (field (name Reference) J)
        (field (name Value) Conn_02x20_Odd_Even))
      (pins
        (pin (num 1) (name Pin_1) (type passive))
        (pin (num 2) (name Pin_2) (type passive))
        (pin (num 3) (name Pin_3) (type passive))
        (pin (num 4) (name Pin_4) (type passive))
        (pin (num 5) (name Pin_5) (type passive))
        (pin (num 6) (name Pin_6) (type passive))
        (pin (num 7) (name Pin_7) (type passive))
        (pin (num 8) (name Pin_8) (type passive))
        (pin (num 9) (name Pin_9) (type passive))
        (pin (num 10) (name Pin_10) (type passive))
        (pin (num 11) (name Pin_11) (type passive))
        (pin (num 12) (name Pin_12) (type passive))
        (pin (num 13) (name Pin_13) (type passive))
        (pin (num 14) (name Pin_14) (type passive))
        (pin (num 15) (name Pin_15) (type passive))
        (pin (num 16) (name Pin_16) (type passive))
        (pin (num 17) (name Pin_17) (type passive))
        (pin (num 18) (name Pin_18) (type passive))
        (pin (num 19) (name Pin_19) (type passive))
        (pin (num 20) (name Pin_20) (type passive))
        (pin (num 21) (name Pin_21) (type passive))
        (pin (num 22) (name Pin_22) (type passive))
        (pin (num 23) (name Pin_23) (type passive))
        (pin (num 24) (name Pin_24) (type passive))
        (pin (num 25) (name Pin_25) (type passive))
        (pin (num 26) (name Pin_26) (type passive))
        (pin (num 27) (name Pin_27) (type passive))
        (pin (num 28) (name Pin_28) (type passive))
        (pin (num 29) (name Pin_29) (type passive))
        (pin (num 30) (name Pin_30) (type passive))
        (pin (num 31) (name Pin_31) (type passive))
        (pin (num 32) (name Pin_32) (type passive))
        (pin (num 33) (name Pin_33) (type passive))
        (pin (num 34) (name Pin_34) (type passive))
        (pin (num 35) (name Pin_35) (type passive))
        (pin (num 36) (name Pin_36) (type passive))
        (pin (num 37) (name Pin_37) (type passive))
        (pin (num 38) (name Pin_38) (type passive))
        (pin (num 39) (name Pin_39) (type passive))
        (pin (num 40) (name Pin_40) (type passive))))
    (libpart (lib Device) (part Buzzer)
      (description "Buzzer, polarized")
      (docs ~)
      (footprints
        (fp *Buzzer*))
      (fields
        (field (name Reference) BZ)
        (field (name Value) Buzzer))
      (pins
        (pin (num 1) (name -) (type passive))
        (pin (num 2) (name +) (type passive))))
    (libpart (lib Device) (part C)
      (description "Unpolarized capacitor")
      (docs ~)
      (footprints
        (fp C_*))
      (fields
        (field (name Reference) C)
        (field (name Value) C))
      (pins
        (pin (num 1) (name ~) (type passive))
        (pin (num 2) (name ~) (type passive))))
    (libpart (lib Device) (part L)
      (description Inductor)
      (docs ~)
      (footprints
        (fp Choke_*)
        (fp *Coil*)
        (fp Inductor_*)
        (fp L_*))
      (fields
        (field (name Reference) L)
        (field (name Value) L))
      (pins
        (pin (num 1) (name 1) (type passive))
        (pin (num 2) (name 2) (type passive))))
    (libpart (lib Diode) (part SB120)
      (aliases
        (alias SB130)
        (alias SB140)
        (alias SB150)
        (alias SB160)
        (alias 1N5817)
        (alias 1N5818)
        (alias 1N5819))
      (description "20V 1A Schottky Barrier Rectifier Diode, DO-41")
      (docs http://www.diodes.com/_files/datasheets/ds23022.pdf)
      (footprints
        (fp D*DO?41*))
      (fields
        (field (name Reference) D)
        (field (name Value) SB120)
        (field (name Footprint) Diode_THT:D_DO-41_SOD81_P10.16mm_Horizontal))
      (pins
        (pin (num 1) (name K) (type passive))
        (pin (num 2) (name A) (type passive))))
    (libpart (lib Regulator_Switching) (part LM2576HVS-12)
      (aliases
        (alias LM2576HVS-3.3)
        (alias LM2576HVS-5)
        (alias LM2576HVS-15)
        (alias LM2576HVS-ADJ)
        (alias LM2576S-12)
        (alias LM2576S-3.3)
        (alias LM2576S-5)
        (alias LM2576S-15)
        (alias LM2576S-ADJ)
        (alias LM2575BU-ADJ)
        (alias LM2575-3.3BU)
        (alias LM2575-5.0BU)
        (alias LM2575-12BU)
        (alias GL2576-3.3TA5R)
        (alias GL2576-5.0TA5R)
        (alias GL2576-12TA5R)
        (alias GL2576-15TA5R)
        (alias GL2576-ATA5R))
      (description "12V, 3A SIMPLE SWITCHER® Step-Down Voltage Regulator, High Voltage Input, TO-263")
      (docs http://www.ti.com/lit/ds/symlink/lm2576.pdf)
      (footprints
        (fp TO?263*))
      (fields
        (field (name Reference) U)
        (field (name Value) LM2576HVS-12)
        (field (name Footprint) Package_TO_SOT_SMD:TO-263-5_TabPin3))
      (pins
        (pin (num 1) (name VIN) (type power_in))
        (pin (num 2) (name OUT) (type output))
        (pin (num 3) (name GND) (type power_in))
        (pin (num 4) (name FB) (type input))
        (pin (num 5) (name ~ON~/OFF) (type input))))
    (libpart (lib Sensor_Proximity) (part ITR8307-F43)
      (aliases
        (alias BPR-105F)
        (alias QRE1113GR))
      (description "Subminiature Reflective Optical Sensor, DIP-like THT-package")
      (docs https://everlighteurope.com/index.php?controller=attachment&id_attachment=5385)
      (footprints
        (fp Everlight*ITR8307F43*))
      (fields
        (field (name Reference) U)
        (field (name Value) ITR8307-F43)
        (field (name Footprint) OptoDevice:Everlight_ITR8307F43))
      (pins
        (pin (num 1) (name K) (type passive))
        (pin (num 2) (name A) (type passive))
        (pin (num 3) (name C) (type openCol))
        (pin (num 4) (name E) (type openEm))))
    (libpart (lib Switch) (part SW_Push)
      (description "Push button switch, generic, two pins")
      (docs ~)
      (fields
        (field (name Reference) SW)
        (field (name Value) SW_Push))
      (pins
        (pin (num 1) (name 1) (type passive))
        (pin (num 2) (name 2) (type passive))))
    (libpart (lib Switch) (part SW_SPDT)
      (description "Switch, single pole double throw")
      (docs ~)
      (fields
        (field (name Reference) SW)
        (field (name Value) SW_SPDT))
      (pins
        (pin (num 1) (name A) (type passive))
        (pin (num 2) (name B) (type passive))
        (pin (num 3) (name C) (type passive))))
    (libpart (lib Transistor_BJT) (part 2N2219)
      (aliases
        (alias BC140)
        (alias BC141))
      (description "800mA Ic, 50V Vce, NPN Transistor, TO-39")
      (docs http://www.onsemi.com/pub_link/Collateral/2N2219-D.PDF)
      (footprints
        (fp TO?39*))
      (fields
        (field (name Reference) Q)
        (field (name Value) 2N2219)
        (field (name Footprint) Package_TO_SOT_THT:TO-39-3))
      (pins
        (pin (num 1) (name E) (type passive))
        (pin (num 2) (name B) (type passive))
        (pin (num 3) (name C) (type passive))))
    (libpart (lib pspice) (part R)
      (description "Resistor symbol for simulation only")
      (docs ~)
      (fields
        (field (name Reference) R)
        (field (name Value) R))
      (pins
        (pin (num 1) (name ~) (type passive))
        (pin (num 2) (name ~) (type passive)))))
  (libraries
    (library (logical Connector_Generic)
      (uri "C:\\Program Files\\KiCad\\share\\kicad\\library/Connector_Generic.lib"))
    (library (logical Device)
      (uri "C:\\Program Files\\KiCad\\share\\kicad\\library/Device.lib"))
    (library (logical Diode)
      (uri "C:\\Program Files\\KiCad\\share\\kicad\\library/Diode.lib"))
    (library (logical Regulator_Switching)
      (uri "C:\\Program Files\\KiCad\\share\\kicad\\library/Regulator_Switching.lib"))
    (library (logical Sensor_Proximity)
      (uri "C:\\Program Files\\KiCad\\share\\kicad\\library/Sensor_Proximity.lib"))
    (library (logical Switch)
      (uri "C:\\Program Files\\KiCad\\share\\kicad\\library/Switch.lib"))
    (library (logical Transistor_BJT)
      (uri "C:\\Program Files\\KiCad\\share\\kicad\\library/Transistor_BJT.lib"))
    (library (logical pspice)
      (uri "C:\\Program Files\\KiCad\\share\\kicad\\library/pspice.lib")))
  (nets
    (net (code 1) (name "Net-(J3-Pad35)")
      (node (ref J3) (pin 35))
      (node (ref R7) (pin 2)))
    (net (code 2) (name +BATT)
      (node (ref D1) (pin 1))
      (node (ref J4) (pin 12)))
    (net (code 3) (name "Net-(J4-Pad11)")
      (node (ref R16) (pin 1))
      (node (ref J4) (pin 11)))
    (net (code 4) (name "Net-(J4-Pad10)")
      (node (ref R15) (pin 1))
      (node (ref J4) (pin 10)))
    (net (code 5) (name "Net-(R7-Pad1)")
      (node (ref R7) (pin 1))
      (node (ref U3) (pin 4)))
    (net (code 6) (name "Net-(R2-Pad2)")
      (node (ref U2) (pin 4))
      (node (ref R2) (pin 2)))
    (net (code 7) (name "Net-(J3-Pad7)")
      (node (ref R17) (pin 2))
      (node (ref J3) (pin 7)))
    (net (code 8) (name "Net-(J4-Pad3)")
      (node (ref R17) (pin 1))
      (node (ref J4) (pin 3)))
    (net (code 9) (name "Net-(J3-Pad29)")
      (node (ref J3) (pin 29))
      (node (ref Q5) (pin 2)))
    (net (code 10) (name "Net-(J3-Pad12)")
      (node (ref R2) (pin 1))
      (node (ref J3) (pin 12)))
    (net (code 11) (name "Net-(J4-Pad9)")
      (node (ref R14) (pin 1))
      (node (ref J4) (pin 9)))
    (net (code 12) (name "Net-(J4-Pad8)")
      (node (ref J4) (pin 8))
      (node (ref R13) (pin 1)))
    (net (code 13) (name "Net-(J4-Pad4)")
      (node (ref Q5) (pin 1))
      (node (ref J4) (pin 4)))
    (net (code 14) (name "Net-(R8-Pad2)")
      (node (ref R8) (pin 2))
      (node (ref U2) (pin 2)))
    (net (code 15) (name "Net-(J3-Pad1)")
      (node (ref J4) (pin 2))
      (node (ref SW3) (pin 1))
      (node (ref SW2) (pin 1))
      (node (ref SW1) (pin 2))
      (node (ref U3) (pin 3))
      (node (ref J3) (pin 1))
      (node (ref U2) (pin 3)))
    (net (code 16) (name "Net-(R9-Pad2)")
      (node (ref U3) (pin 2))
      (node (ref R9) (pin 2)))
    (net (code 17) (name "Net-(J3-Pad11)")
      (node (ref R6) (pin 1))
      (node (ref J3) (pin 11)))
    (net (code 18) (name "Net-(R6-Pad2)")
      (node (ref R6) (pin 2))
      (node (ref SW3) (pin 2)))
    (net (code 19) (name "Net-(J3-Pad38)")
      (node (ref R3) (pin 1))
      (node (ref J3) (pin 38)))
    (net (code 20) (name "Net-(R3-Pad2)")
      (node (ref R3) (pin 2))
      (node (ref SW1) (pin 1)))
    (net (code 21) (name "Net-(R4-Pad2)")
      (node (ref SW1) (pin 3))
      (node (ref R4) (pin 2)))
    (net (code 22) (name "Net-(J3-Pad32)")
      (node (ref R13) (pin 2))
      (node (ref J3) (pin 32)))
    (net (code 23) (name "Net-(J3-Pad24)")
      (node (ref J3) (pin 24))
      (node (ref R12) (pin 2)))
    (net (code 24) (name "Net-(J3-Pad26)")
      (node (ref R11) (pin 2))
      (node (ref J3) (pin 26)))
    (net (code 25) (name "Net-(J3-Pad21)")
      (node (ref R16) (pin 2))
      (node (ref J3) (pin 21)))
    (net (code 26) (name "Net-(J3-Pad19)")
      (node (ref R15) (pin 2))
      (node (ref J3) (pin 19)))
    (net (code 27) (name "Net-(J3-Pad23)")
      (node (ref J3) (pin 23))
      (node (ref R14) (pin 2)))
    (net (code 28) (name "Net-(J4-Pad7)")
      (node (ref J4) (pin 7))
      (node (ref R12) (pin 1)))
    (net (code 29) (name "Net-(J4-Pad6)")
      (node (ref J4) (pin 6))
      (node (ref R11) (pin 1)))
    (net (code 30) (name "Net-(J3-Pad31)")
      (node (ref J3) (pin 31))
      (node (ref R10) (pin 2)))
    (net (code 31) (name "Net-(J4-Pad5)")
      (node (ref J4) (pin 5))
      (node (ref R10) (pin 1)))
    (net (code 32) (name "Net-(J3-Pad40)")
      (node (ref R4) (pin 1))
      (node (ref J3) (pin 40)))
    (net (code 33) (name "Net-(L1-Pad1)")
      (node (ref L1) (pin 1))
      (node (ref U1) (pin 2)))
    (net (code 34) (name "Net-(C1-Pad1)")
      (node (ref D1) (pin 2))
      (node (ref C1) (pin 1))
      (node (ref U1) (pin 1)))
    (net (code 35) (name "Net-(J3-Pad3)")
      (node (ref J3) (pin 3)))
    (net (code 36) (name "Net-(J3-Pad28)")
      (node (ref J3) (pin 28)))
    (net (code 37) (name "Net-(J3-Pad27)")
      (node (ref J3) (pin 27)))
    (net (code 38) (name "Net-(J3-Pad25)")
      (node (ref J3) (pin 25)))
    (net (code 39) (name "Net-(J3-Pad22)")
      (node (ref J3) (pin 22)))
    (net (code 40) (name "Net-(J3-Pad20)")
      (node (ref J3) (pin 20)))
    (net (code 41) (name "Net-(J3-Pad30)")
      (node (ref J3) (pin 30)))
    (net (code 42) (name "Net-(J3-Pad18)")
      (node (ref J3) (pin 18)))
    (net (code 43) (name "Net-(J3-Pad17)")
      (node (ref J3) (pin 17)))
    (net (code 44) (name "Net-(J3-Pad14)")
      (node (ref J3) (pin 14)))
    (net (code 45) (name "Net-(J2-Pad4)")
      (node (ref J3) (pin 10))
      (node (ref J2) (pin 4)))
    (net (code 46) (name "Net-(J3-Pad9)")
      (node (ref J3) (pin 9)))
    (net (code 47) (name "Net-(J2-Pad3)")
      (node (ref J2) (pin 3))
      (node (ref J3) (pin 8)))
    (net (code 48) (name -BATT)
      (node (ref Q1) (pin 1))
      (node (ref Q2) (pin 1))
      (node (ref J3) (pin 6))
      (node (ref U3) (pin 1))
      (node (ref U2) (pin 1))
      (node (ref J1) (pin 2))
      (node (ref J4) (pin 1))
      (node (ref J1) (pin 1))
      (node (ref J2) (pin 2))
      (node (ref U1) (pin 3))
      (node (ref U1) (pin 5))
      (node (ref C1) (pin 2))
      (node (ref C2) (pin 2))
      (node (ref BZ1) (pin 2)))
    (net (code 49) (name "Net-(J3-Pad5)")
      (node (ref J3) (pin 5)))
    (net (code 50) (name "Net-(J3-Pad4)")
      (node (ref J3) (pin 4)))
    (net (code 51) (name "Net-(J3-Pad39)")
      (node (ref J3) (pin 39)))
    (net (code 52) (name "Net-(J3-Pad34)")
      (node (ref J3) (pin 34)))
    (net (code 53) (name "Net-(J3-Pad33)")
      (node (ref J3) (pin 33)))
    (net (code 54) (name "Net-(J3-Pad16)")
      (node (ref Q2) (pin 2))
      (node (ref J3) (pin 16)))
    (net (code 55) (name "Net-(Q4-Pad1)")
      (node (ref R1) (pin 2))
      (node (ref Q4) (pin 1)))
    (net (code 56) (name "Net-(BZ1-Pad1)")
      (node (ref Q3) (pin 1))
      (node (ref BZ1) (pin 1))
      (node (ref R1) (pin 1)))
    (net (code 57) (name "Net-(C2-Pad1)")
      (node (ref Q4) (pin 3))
      (node (ref Q2) (pin 3))
      (node (ref Q3) (pin 3))
      (node (ref Q1) (pin 3))
      (node (ref Q5) (pin 3))
      (node (ref J3) (pin 2))
      (node (ref J2) (pin 1))
      (node (ref U1) (pin 4))
      (node (ref C2) (pin 1))
      (node (ref L1) (pin 2))
      (node (ref R9) (pin 1))
      (node (ref R8) (pin 1)))
    (net (code 58) (name "Net-(R5-Pad1)")
      (node (ref SW2) (pin 2))
      (node (ref R5) (pin 1)))
    (net (code 59) (name "Net-(J3-Pad36)")
      (node (ref J3) (pin 36))
      (node (ref R5) (pin 2)))
    (net (code 60) (name "Net-(J3-Pad15)")
      (node (ref Q1) (pin 2))
      (node (ref J3) (pin 15)))
    (net (code 61) (name "Net-(J3-Pad37)")
      (node (ref Q3) (pin 2))
      (node (ref J3) (pin 37)))
    (net (code 62) (name "Net-(J3-Pad13)")
      (node (ref Q4) (pin 2))
      (node (ref J3) (pin 13)))))